25
5
1.36233786766
6
unknown
16
39
21
44
12.6491106407
0.0
0.0
0.0
0.0
0.0
0.0
0.0
0.0
0.0
0.0
0.0166666666667
0.0333333333333
0.0333333333333
0.0833333333333
0.0833333333333
0.166666666667
0.0666666666667
0.133333333333
0.0666666666667
0.0666666666667
0.0833333333333
0.0333333333333
0.0833333333333
0.0166666666667
0.0166666666667
0.181015298603
0.05
0.0166666666667
0.0333333333333
0.0666666666667
0.0333333333333
0.0333333333333
0.0333333333333
0.0333333333333
0.0666666666667
0.0333333333333
0.05
0.0333333333333
0.0166666666667
0.0166666666667
0.0
0.0166666666667
0.0166666666667
0.0
0.0166666666667
0.0166666666667
0.0333333333333
0.0
0.05
0.0166666666667
0.0166666666667
3
rectangle
11
109
16
56
57.2450871254
0.0
0.0
0.0
0.0
0.0
0.0
0.0
0.0
0.00110324538016
0.00110324538016
0.000735496920107
0.00055162269008
0.00082743403512
0.00096533970764
0.00101130826515
0.00096533970764
0.00114921393767
0.00105727682265
0.00170083662775
0.00188471085777
0.00119518249517
0.000505654132573
0.00055162269008
0.00096533970764
0.0006895283626
0.0
0.0
0.0
0.0
0.0
0.0
0.0
0.0
0.00110324538016
0.00110324538016
0.000735496920107
0.00055162269008
0.00082743403512
0.00096533970764
0.00101130826515
0.00096533970764
0.00114921393767
0.00105727682265
0.00170083662775
0.00188471085777
0.00119518249517
0.000505654132573
0.00055162269008
0.00096533970764
0.0006895283626
0.099479684587
0.00160889951273
0.000919371150133
0.00119518249517
0.00151696239772
0.000919371150133
0.000735496920107
0.00055162269008
0.000505654132573
0.00041371701756
0.000367748460053
0.00041371701756
0.00041371701756
0.000229842787533
0.00013790567252
0.000183874230027
0.000183874230027
0.000183874230027
0.000229842787533
0.00027581134504
0.000367748460053
0.000459685575067
0.000505654132573
0.000321779902547
0.000367748460053
0.00027581134504
0.00160889951273
0.000919371150133
0.00119518249517
0.00151696239772
0.000919371150133
0.000735496920107
0.00055162269008
0.000505654132573
0.00041371701756
0.000367748460053
0.00041371701756
0.00041371701756
0.000229842787533
0.00013790567252
0.000183874230027
0.000183874230027
0.000183874230027
0.000229842787533
0.00027581134504
0.000367748460053
0.000459685575067
0.000505654132573
0.000321779902547
0.000367748460053
0.00027581134504
4
unknown
102
109
16
29
7.61577310586
0.0
0.0
0.0
0.0
0.0
0.0
0.0333333333333
0.1
0.0
0.0666666666667
0.1
0.1
0.0
0.1
0.0
0.0
0.233333333333
0.0666666666667
0.0
0.1
0.0
0.0
0.0333333333333
0.0333333333333
0.0
0.21165813058
0.0333333333333
0.0
0.0666666666667
0.0
0.0666666666667
0.0
0.0666666666667
0.0666666666667
0.1
0.0666666666667
0.0666666666667
0.0333333333333
0.0333333333333
0.0
0.0333333333333
0.0333333333333
0.0
0.0666666666667
0.0333333333333
0.0
0.0
0.0333333333333
0.0
0.0
0.0
2
unknown
4
118
6
55
66.5732679084
0.0077519379845
0.015503875969
0.015503875969
0.0335917312661
0.0413436692506
0.031007751938
0.031007751938
0.031007751938
0.0258397932817
0.031007751938
0.031007751938
0.0258397932817
0.031007751938
0.0258397932817
0.0258397932817
0.031007751938
0.031007751938
0.0206718346253
0.0516795865633
0.0671834625323
0.108527131783
0.116279069767
0.0671834625323
0.0568475452196
0.0439276485788
0.0368736635204
0.142118863049
0.103359173127
0.0749354005168
0.0671834625323
0.0594315245478
0.015503875969
0.0077519379845
0.00516795865633
0.0077519379845
0.00258397932817
0.00516795865633
0.00258397932817
0.0
0.00258397932817
0.00516795865633
0.00258397932817
0.0077519379845
0.00516795865633
0.0077519379845
0.0077519379845
0.015503875969
0.0232558139535
0.0387596899225
0.0671834625323
0.116279069767
5
unknown
85
107
18
42
12.1655250606
0.0
0.0
0.0
0.0
0.0
0.0
0.0
0.0
0.0
0.0
0.0
0.0344827586207
0.0344827586207
0.051724137931
0.120689655172
0.0344827586207
0.172413793103
0.0689655172414
0.103448275862
0.0344827586207
0.120689655172
0.0344827586207
0.120689655172
0.0344827586207
0.0172413793103
0.189317731444
0.051724137931
0.0344827586207
0.0344827586207
0.051724137931
0.0344827586207
0.0344827586207
0.051724137931
0.051724137931
0.0344827586207
0.051724137931
0.0344827586207
0.0344827586207
0.0172413793103
0.0172413793103
0.0
0.0172413793103
0.0172413793103
0.0172413793103
0.0
0.0172413793103
0.0344827586207
0.0
0.051724137931
0.0172413793103
0.0172413793103
8
3
6
1
1
0.0665261890427
floor
3
4
1
1
0.0153521974714
floor
2
3
1
1
0.371011438892
floor
3
5
1
1
0.0674292594822
floor
2
4
1
1
0.0413793103448
touch
4
5
1
1
0.227678571429
touch
2
5
1
1
0.181744421907
touch
2
6
1
1
0.179310344828
floor
