25
7
1.0
3
rectangle
108
199
10
49
48.8466989673
0.0
0.0
0.0
0.0
0.0
0.0
0.0
0.0
0.0
0.0703125
0.09375
0.046875
0.046875
0.046875
0.046875
0.03125
0.046875
0.03125
0.03125
0.046875
0.03125
0.03125
0.03125
0.2421875
0.109375
0.181475290079
0.04296875
0.046875
0.046875
0.09375
0.0625
0.046875
0.0390625
0.0234375
0.03125
0.015625
0.0234375
0.015625
0.015625
0.0078125
0.01171875
0.0078125
0.015625
0.01171875
0.01953125
0.0234375
0.03125
0.046875
0.0234375
0.0234375
0.01953125
4
unknown
17
104
50
87
59.0338885726
0.0
0.0
0.0
0.0
0.0528846153846
0.0961538461538
0.0721153846154
0.0576923076923
0.0528846153846
0.0480769230769
0.0480769230769
0.100961538462
0.105769230769
0.0625
0.0528846153846
0.0480769230769
0.0192307692308
0.0288461538462
0.0192307692308
0.0192307692308
0.0240384615385
0.0240384615385
0.0240384615385
0.0192307692308
0.0192307692308
0.0818965186559
0.100961538462
0.158653846154
0.0913461538462
0.0480769230769
0.0288461538462
0.0288461538462
0.0144230769231
0.0240384615385
0.00961538461538
0.0192307692308
0.00961538461538
0.0192307692308
0.00480769230769
0.00961538461538
0.00480769230769
0.00961538461538
0.00480769230769
0.0144230769231
0.00961538461538
0.0192307692308
0.0240384615385
0.0336538461538
0.0192307692308
0.0192307692308
0.0144230769231
6
unknown
111
199
50
87
59.0338885726
0.0
0.0
0.0
0.0
0.0571428571429
0.0904761904762
0.0761904761905
0.0571428571429
0.047619047619
0.047619047619
0.047619047619
0.0571428571429
0.138095238095
0.0666666666667
0.0571428571429
0.052380952381
0.0238095238095
0.0285714285714
0.0190476190476
0.0190476190476
0.0238095238095
0.0238095238095
0.0238095238095
0.0190476190476
0.0190476190476
0.0821324152251
0.0333333333333
0.0380952380952
0.0428571428571
0.052380952381
0.052380952381
0.0571428571429
0.052380952381
0.0380952380952
0.0190476190476
0.0238095238095
0.0142857142857
0.0190476190476
0.0047619047619
0.00952380952381
0.0047619047619
0.00952380952381
0.0047619047619
0.0142857142857
0.00952380952381
0.0190476190476
0.0238095238095
0.0333333333333
0.0714285714286
0.142857142857
0.0571428571429
2
rectangle
17
107
10
49
48.8466989673
0.0
0.0
0.0
0.0
0.0
0.0
0.0
0.0
0.0
0.0708661417323
0.0944881889764
0.0472440944882
0.0472440944882
0.0472440944882
0.0472440944882
0.0314960629921
0.0472440944882
0.0314960629921
0.0314960629921
0.0472440944882
0.0314960629921
0.0314960629921
0.106299212598
0.192913385827
0.0866141732283
0.181158666524
0.0433070866142
0.0472440944882
0.0472440944882
0.0944881889764
0.0629921259843
0.0472440944882
0.0393700787402
0.0236220472441
0.0314960629921
0.0157480314961
0.0236220472441
0.0157480314961
0.0157480314961
0.00787401574803
0.011811023622
0.00787401574803
0.0157480314961
0.011811023622
0.0196850393701
0.0236220472441
0.0314960629921
0.0433070866142
0.0236220472441
0.0236220472441
0.0196850393701
5
unknown
17
199
50
266
127.988280714
0.0
0.0
0.0
0.0
0.0
0.0
0.0
0.0
0.0
0.0
0.0
0.0
0.0
0.0
0.0
0.0
0.0
0.218181818182
0.188811188811
0.132867132867
0.113286713287
0.103496503497
0.0937062937063
0.0909090909091
0.0573426573427
0.207502454396
0.0321678321678
0.0335664335664
0.0363636363636
0.0391608391608
0.0447552447552
0.0783216783217
0.0531468531469
0.034965034965
0.0335664335664
0.0307692307692
0.0307692307692
0.034965034965
0.027972027972
0.0181818181818
0.013986013986
0.013986013986
0.0125874125874
0.0111888111888
0.0461538461538
0.0293706293706
0.0223776223776
0.0195804195804
0.0167832167832
0.0167832167832
0.0153846153846
10
unknown
111
198
52
114
57.1401785086
0.0
0.0
0.0
0.0
0.0462427745665
0.104046242775
0.0635838150289
0.0578034682081
0.0578034682081
0.0462427745665
0.0520231213873
0.0404624277457
0.0462427745665
0.132947976879
0.0751445086705
0.0462427745665
0.0520231213873
0.0231213872832
0.0231213872832
0.0173410404624
0.0231213872832
0.028901734104
0.0173410404624
0.0231213872832
0.0173410404624
0.0726010595044
0.0982658959538
0.0462427745665
0.0404624277457
0.028901734104
0.0346820809249
0.0173410404624
0.0231213872832
0.028901734104
0.0231213872832
0.0346820809249
0.028901734104
0.028901734104
0.0115606936416
0.0115606936416
0.0115606936416
0.0115606936416
0.0231213872832
0.0231213872832
0.0462427745665
0.0809248554913
0.127167630058
0.0520231213873
0.0346820809249
0.0173410404624
0.0115606936416
9
unknown
18
104
52
114
58.5234995536
0.0
0.0
0.0
0.0
0.0406976744186
0.104651162791
0.0697674418605
0.0581395348837
0.0581395348837
0.0523255813953
0.0523255813953
0.0523255813953
0.139534883721
0.0697674418605
0.046511627907
0.046511627907
0.0232558139535
0.0290697674419
0.0174418604651
0.0232558139535
0.0232558139535
0.0232558139535
0.0232558139535
0.0232558139535
0.0174418604651
0.0711550480748
0.0290697674419
0.0232558139535
0.046511627907
0.0581395348837
0.133720930233
0.0988372093023
0.0523255813953
0.0348837209302
0.0232558139535
0.0232558139535
0.0232558139535
0.0174418604651
0.0116279069767
0.0116279069767
0.00581395348837
0.00581395348837
0.00581395348837
0.0116279069767
0.00581395348837
0.0116279069767
0.0116279069767
0.0174418604651
0.0116279069767
0.0290697674419
0.0290697674419
21
3
6
1
1
0.447953216374
touch
2
3
1
1
0.988888888889
touch
3
5
1
1
0.10681658468
floor
2
4
1
1
0.448255470136
touch
4
5
1
1
0.0473491059577
floor
4
9
1
1
0.969929622521
touch
5
6
1
1
0.0478488326696
floor
6
10
1
1
0.971772914684
touch
2
5
1
1
0.105629733739
floor
5
10
1
1
0.0492386975873
floor
5
9
1
1
0.048817053174
floor
3
9
1
1
0.45701754386
floor
9
10
1
1
0.991436726927
floor
6
9
1
1
0.980166346769
floor
2
9
1
1
0.462152572442
floor
3
4
1
1
0.443274853801
floor
3
10
1
1
0.460964912281
floor
4
10
1
1
0.961623850301
floor
4
6
1
1
0.98955613577
floor
2
10
1
1
0.466144293318
floor
2
6
1
1
0.452986398581
floor
