25
1
0
1
rectangle
1
111
1
321
164.468842034
0.0
0.0
0.0
0.0
0.0
0.0
0.0
0.0
0.115577889447
0.070351758794
0.0552763819095
0.0452261306533
0.0452261306533
0.0402010050251
0.0402010050251
0.0402010050251
0.0376884422111
0.0376884422111
0.0376884422111
0.035175879397
0.0376884422111
0.0389447236181
0.0414572864322
0.125628140704
0.154522613065
0.147482753509
0.0163316582915
0.0201005025126
0.0175879396985
0.0226130653266
0.0226130653266
0.0301507537688
0.0376884422111
0.0502512562814
0.0753768844221
0.0879396984925
0.0477386934673
0.0489949748744
0.0376884422111
0.0238693467337
0.0213567839196
0.0326633165829
0.036432160804
0.0251256281407
0.0188442211055
0.0138190954774
0.0125628140704
0.0100502512563
0.0100502512563
0.00879396984925
0.00753768844221
0
