25
3
1.17579264676
3
unknown
22
53
26
76
28.1780056072
0.0
0.0
0.0
0.0
0.0
0.0
0.0
0.0
0.0
0.0
0.0
0.0
0.0647482014388
0.0719424460432
0.107913669065
0.0791366906475
0.0647482014388
0.0287769784173
0.187050359712
0.165467625899
0.0503597122302
0.0647482014388
0.0215827338129
0.0647482014388
0.0215827338129
0.202957731612
0.0359712230216
0.0143884892086
0.0287769784173
0.0431654676259
0.0287769784173
0.0431654676259
0.0431654676259
0.0719424460432
0.0647482014388
0.0575539568345
0.0431654676259
0.0431654676259
0.0287769784173
0.0143884892086
0.0215827338129
0.0143884892086
0.0215827338129
0.0287769784173
0.0215827338129
0.0215827338129
0.0215827338129
0.0143884892086
0.0143884892086
0.0143884892086
0.00719424460432
2
unknown
51
125
24
77
40.3112887415
0.0
0.0
0.0
0.0
0.0
0.0
0.0
0.0
0.0
0.0
0.0
0.0
0.0
0.0
0.0
0.000372617906952
0.00101139146173
0.00183647396998
0.00101139146173
0.00133077823911
0.00117108485042
0.000984775896945
0.00093154476738
0.00125093154477
0.00034600234217
0.0
0.0
0.0
0.0
0.0
0.0
0.0
0.0
0.0
0.0
0.0
0.0
0.0
0.0
0.0
0.000372617906952
0.00101139146173
0.00183647396998
0.00101139146173
0.00133077823911
0.00117108485042
0.000984775896945
0.00093154476738
0.00125093154477
0.00034600234217
0.0409652738916
0.000479080166081
0.000425849036517
0.000399233471734
0.00034600234217
0.00034600234217
0.000372617906952
0.000319386777387
0.000399233471734
0.000372617906952
0.000319386777387
0.000399233471734
0.000319386777387
0.000212924518258
0.000159693388694
0.000159693388694
0.000186308953476
0.000159693388694
0.000212924518258
0.000212924518258
0.000212924518258
0.000372617906952
0.000372617906952
0.000266155647823
0.000212924518258
0.000186308953476
0.000479080166081
0.000425849036517
0.000399233471734
0.00034600234217
0.00034600234217
0.000372617906952
0.000319386777387
0.000399233471734
0.000372617906952
0.000319386777387
0.000399233471734
0.000319386777387
0.000212924518258
0.000159693388694
0.000159693388694
0.000186308953476
0.000159693388694
0.000212924518258
0.000212924518258
0.000212924518258
0.000372617906952
0.000372617906952
0.000266155647823
0.000212924518258
0.000186308953476
4
ellipse
65
122
27
74
30.1496268634
0.0
0.0
0.0
0.0
0.0
0.0
0.0
0.0
0.0
0.0
0.0
0.0
0.0
0.0
0.0
0.0
0.0
0.0
0.0891719745223
0.216560509554
0.114649681529
0.15923566879
0.127388535032
0.133757961783
0.152866242038
0.239027215345
0.0445859872611
0.0509554140127
0.0382165605096
0.0382165605096
0.031847133758
0.0382165605096
0.0382165605096
0.0382165605096
0.0382165605096
0.031847133758
0.031847133758
0.0382165605096
0.0254777070064
0.0191082802548
0.0191082802548
0.0191082802548
0.0191082802548
0.0191082802548
0.0191082802548
0.0254777070064
0.0191082802548
0.0254777070064
0.0254777070064
0.0191082802548
0.0191082802548
3
2
3
1
1
0.39567760806
floor
2
4
1
1
0.685245368866
floor
3
4
1
1
0.577424709509
floor
