contour_details : [820 1080],[820 1161],[821 1162],[821 1281],[822 1282],[822 1401],[823 1402],[823 1520],[824 1521],[824 1640],[825 1641],[825 1679],[1384 1679],[1384 1080] : kitchen : [1186,1380]
contour_details : [718 1080],[717 1081],[608 1081],[607 1082],[498 1082],[497 1083],[388 1083],[387 1084],[278 1084],[277 1085],[245 1085],[245 1679],[794 1679],[794 1080] : dining : [578,1393]
contour_details : [105 260],[105 759],[249 759],[250 760],[250 1064],[789 1064],[789 480],[595 480],[594 479],[594 260] : living : [463,648]
contour_details : [900 200],[900 484],[899 485],[815 485],[815 1034],[1289 1034],[1289 200] : entry : [1186,687]
