25
2
2.40714908431
3
circle
33
68
24
58
18.0277563773
0.0
0.0
0.0
0.0
0.0
0.0
0.0
0.0
0.0
0.0
0.0
0.0
0.0
0.0
0.0
0.0
0.000793021411578
0.0
0.000793021411578
0.00237906423473
0.00118953211737
0.00118953211737
0.0158604282316
0.0182394924663
0.00634417129262
0.0
0.0
0.0
0.0
0.0
0.0
0.0
0.0
0.0
0.0
0.0
0.0
0.0
0.0
0.0
0.0
0.000793021411578
0.0
0.000793021411578
0.00237906423473
0.00118953211737
0.00118953211737
0.0158604282316
0.0182394924663
0.00634417129262
0.224028120252
0.00237906423473
0.00237906423473
0.00158604282316
0.00237906423473
0.00198255352895
0.00198255352895
0.00198255352895
0.00158604282316
0.00198255352895
0.00198255352895
0.00237906423473
0.00158604282316
0.00198255352895
0.000793021411578
0.00118953211737
0.000793021411578
0.000793021411578
0.000793021411578
0.000793021411578
0.000793021411578
0.00118953211737
0.000793021411578
0.000396510705789
0.00118953211737
0.000793021411578
0.00237906423473
0.00237906423473
0.00158604282316
0.00237906423473
0.00198255352895
0.00198255352895
0.00198255352895
0.00158604282316
0.00198255352895
0.00198255352895
0.00237906423473
0.00158604282316
0.00198255352895
0.000793021411578
0.00118953211737
0.000793021411578
0.000793021411578
0.000793021411578
0.000793021411578
0.000793021411578
0.00118953211737
0.000793021411578
0.000396510705789
0.00118953211737
0.000793021411578
2
unknown
21
79
15
64
29.5465734054
0.0
0.0
0.0
0.0
0.0
0.0
0.0
0.0
0.0
0.0
0.0
0.0
0.0
0.024
0.044
0.044
0.052
0.044
0.064
0.068
0.076
0.08
0.032
0.308
0.16
0.0740505394136
0.048
0.052
0.044
0.04
0.052
0.032
0.048
0.048
0.052
0.028
0.024
0.028
0.016
0.0
0.0
0.004
0.032
0.024
0.024
0.016
0.016
0.02
0.024
0.02
0.02
1
2
3
1
1
0.984702549575
floor
