contour_details : [363 896],[363 1397],[1625 1397],[1625 1228],[1624 1227],[1624 977],[1623 976],[1623 896] : dining : [739,1094]
contour_details : [363 518],[363 865],[573 865],[573 522],[558 522],[557 521],[505 521],[504 520],[453 520],[452 519],[400 519],[399 518] : corr : [458,609]
contour_details : [199 104],[199 237],[200 238],[200 433],[201 434],[201 497],[227 497],[228 498],[316 498],[317 499],[406 499],[407 500],[496 500],[497 501],[585 501],[586 502],[675 502],[676 503],[738 503],[738 413],[737 412],[737 281],[736 280],[736 148],[735 147],[735 105],[574 105],[573 104] : kitchen : [427,380]
