contour_details : [695 585],[695 1274],[1384 1274],[1384 585] : dining : [1209,980]
contour_details : [90 565],[90 1274],[664 1274],[664 585],[385 585],[384 584],[384 565] : living : [441,992]
contour_details : [90 200],[90 549],[384 549],[384 530],[385 529],[584 529],[584 200] : entry : [370,386]
contour_details : [695 95],[695 564],[1384 564],[1384 95] : kitchen : [1182,347]
