25
2
1.0
2
unknown
52
83
19
50
16.1554944214
0.0
0.0
0.0
0.0
0.0
0.0
0.0
0.0
0.0
0.0
0.0
0.0
0.0
0.0
0.0
0.0
0.0
0.0
0.0
0.0
0.0
0.261904761905
0.154761904762
0.297619047619
0.261904761905
0.201339071129
0.0595238095238
0.0238095238095
0.047619047619
0.047619047619
0.047619047619
0.0238095238095
0.047619047619
0.0238095238095
0.047619047619
0.047619047619
0.047619047619
0.047619047619
0.0119047619048
0.0238095238095
0.0238095238095
0.0238095238095
0.0119047619048
0.0238095238095
0.0119047619048
0.0238095238095
0.0119047619048
0.0119047619048
0.0238095238095
0.0238095238095
0.0119047619048
3
unknown
14
121
24
60
55.9732078766
0.0
0.0
0.0
0.00931677018634
0.055900621118
0.0186335403727
0.0186335403727
0.0590062111801
0.0714285714286
0.0652173913043
0.0372670807453
0.0372670807453
0.0372670807453
0.0372670807453
0.0310559006211
0.0310559006211
0.0372670807453
0.0310559006211
0.0248447204969
0.0372670807453
0.0248447204969
0.0310559006211
0.0310559006211
0.130434782609
0.136645962733
0.111014334551
0.0527950310559
0.055900621118
0.0900621118012
0.0900621118012
0.055900621118
0.0434782608696
0.0372670807453
0.0248447204969
0.0155279503106
0.00931677018634
0.00931677018634
0.00931677018634
0.00931677018634
0.0
0.0
0.0
0.0
0.00931677018634
0.0217391304348
0.0248447204969
0.0310559006211
0.0496894409938
0.0434782608696
0.027950310559
0.0248447204969
1
2
3
1
1
0.234301147873
floor
