contour_details : [1260 1105],[1260 1365],[1326 1365],[1327 1364],[1421 1364],[1422 1363],[1516 1363],[1517 1362],[1611 1362],[1612 1361],[1706 1361],[1707 1360],[1801 1360],[1802 1359],[1829 1359],[1829 1105] : Entry : [1612,1227]
contour_details : [131 465],[131 1094],[990 1094],[990 465] : Dining : [427,842]
contour_details : [1008 460],[1008 1089],[1832 1089],[1832 500],[1523 500],[1522 499],[1522 460] : Living : [1391,802]
contour_details : [647 139],[646 140],[528 140],[527 141],[409 141],[408 142],[290 142],[289 143],[171 143],[170 144],[135 144],[135 448],[729 448],[729 139] : Kitchen : [428,253]
