contour_details : [424 735],[424 736],[422 738],[422 739],[419 742],[419 743],[417 745],[417 746],[414 749],[414 750],[412 752],[412 753],[409 756],[409 757],[407 759],[407 760],[404 763],[404 764],[402 766],[402 767],[399 770],[399 771],[397 773],[397 774],[394 777],[394 778],[392 780],[392 781],[389 784],[389 785],[387 787],[387 788],[384 791],[384 792],[382 794],[382 795],[380 797],[380 798],[377 801],[377 802],[375 804],[375 805],[372 808],[372 809],[370 811],[370 812],[367 815],[367 816],[365 818],[365 819],[362 822],[362 823],[360 825],[360 826],[357 829],[357 830],[355 832],[355 833],[352 836],[352 837],[350 839],[350 840],[347 843],[347 844],[345 846],[345 847],[342 850],[342 851],[340 853],[340 854],[337 857],[337 858],[335 860],[335 861],[332 864],[332 865],[330 867],[330 868],[327 871],[327 872],[325 874],[325 875],[322 878],[322 879],[320 881],[320 882],[317 885],[317 886],[315 888],[315 889],[312 892],[312 893],[310 895],[310 896],[307 899],[307 900],[305 902],[305 903],[302 906],[302 907],[300 909],[300 910],[298 912],[298 913],[295 916],[295 917],[293 919],[293 920],[290 923],[290 924],[288 926],[288 927],[285 930],[285 931],[283 933],[283 934],[280 937],[280 938],[278 940],[278 941],[275 944],[275 945],[273 947],[273 948],[270 951],[270 952],[268 954],[268 955],[265 958],[265 959],[263 961],[263 962],[260 965],[260 966],[258 968],[258 969],[255 972],[255 973],[253 975],[253 976],[250 979],[250 980],[248 982],[248 983],[245 986],[245 987],[243 989],[243 990],[240 993],[240 994],[238 996],[238 997],[235 1000],[235 1001],[233 1003],[233 1004],[230 1007],[230 1008],[228 1010],[228 1011],[225 1014],[225 1015],[223 1017],[223 1018],[220 1021],[220 1022],[218 1024],[218 1025],[215 1028],[215 1029],[213 1031],[213 1032],[210 1035],[210 1036],[208 1038],[208 1039],[206 1041],[206 1042],[203 1045],[203 1046],[201 1048],[201 1049],[198 1052],[198 1053],[196 1055],[196 1056],[193 1059],[193 1060],[191 1062],[191 1063],[188 1066],[188 1067],[186 1069],[186 1070],[183 1073],[183 1074],[181 1076],[181 1077],[178 1080],[178 1081],[176 1083],[176 1084],[173 1087],[173 1088],[171 1090],[171 1091],[168 1094],[168 1095],[166 1097],[166 1098],[163 1101],[163 1102],[161 1104],[161 1105],[158 1108],[158 1109],[156 1111],[156 1112],[154 1114],[154 1792],[1289 1792],[1289 899],[693 899],[692 898],[692 802],[594 802],[593 801],[593 735] : living : [521,1151]
contour_details : [1012 50],[1012 327],[1102 327],[1103 328],[1103 491],[1377 491],[1377 384],[1376 383],[1376 237],[1375 236],[1375 97],[1374 96],[1374 50] : entry : [1248,295]
contour_details : [437 49],[437 712],[595 712],[595 189],[596 188],[988 188],[988 49] : corridor : [833,129]
