25
10
2.0
4
rectangle
214
254
44
563
260.693306397
0.0
0.0336669699727
0.056414922657
0.0464058234759
0.0400363967243
0.0400363967243
0.0400363967243
0.0400363967243
0.0373066424022
0.0391264786169
0.0391264786169
0.0373066424022
0.0400363967243
0.0363967242948
0.0400363967243
0.0363967242948
0.0400363967243
0.0363967242948
0.0400363967243
0.0363967242948
0.0400363967243
0.0363967242948
0.0400363967243
0.0363967242948
0.090991810737
0.0360976764781
0.00454959053685
0.00363967242948
0.00545950864422
0.00454959053685
0.00636942675159
0.00727934485896
0.0090991810737
0.0127388535032
0.0200181983621
0.0327570518653
0.0746132848044
0.284804367607
0.0454959053685
0.148316651501
0.0327570518653
0.0181983621474
0.0090991810737
0.00545950864422
0.00454959053685
0.00363967242948
0.00363967242948
0.00181983621474
0.00272975432211
0.00181983621474
0.00181983621474
11
unknown
171
210
474
526
37.947331922
0.0
0.0
0.0
0.0208333333333
0.0347222222222
0.0347222222222
0.0138888888889
0.0416666666667
0.0902777777778
0.0972222222222
0.111111111111
0.0833333333333
0.0694444444444
0.0486111111111
0.0416666666667
0.0486111111111
0.0347222222222
0.0555555555556
0.0416666666667
0.0208333333333
0.0277777777778
0.0208333333333
0.0208333333333
0.0208333333333
0.0138888888889
0.0898982899468
0.0208333333333
0.0277777777778
0.0138888888889
0.0277777777778
0.0277777777778
0.0416666666667
0.0416666666667
0.0416666666667
0.0625
0.125
0.125
0.0416666666667
0.00694444444444
0.0208333333333
0.00694444444444
0.0
0.0138888888889
0.0
0.00694444444444
0.00694444444444
0.00694444444444
0.0
0.00694444444444
0.00694444444444
0.00694444444444
5
unknown
143
210
81
196
60.440052945
0.0
0.0
0.0
0.0
0.0
0.0
0.0
0.0
0.0
0.0
0.0
0.0542635658915
0.182170542636
0.077519379845
0.0813953488372
0.0658914728682
0.0581395348837
0.0542635658915
0.0426356589147
0.0658914728682
0.0426356589147
0.0503875968992
0.0503875968992
0.0852713178295
0.0852713178295
0.154116356706
0.031007751938
0.031007751938
0.031007751938
0.0348837209302
0.031007751938
0.0426356589147
0.0426356589147
0.0503875968992
0.0426356589147
0.046511627907
0.046511627907
0.0503875968992
0.0348837209302
0.0271317829457
0.0271317829457
0.0271317829457
0.031007751938
0.0271317829457
0.031007751938
0.0232558139535
0.0232558139535
0.0193798449612
0.0193798449612
0.015503875969
0.0116279069767
12
rectangle
79
210
529
564
67.082039325
0.0
0.0
0.0
0.0
0.0
0.00974025974026
0.11038961039
0.0681818181818
0.0487012987013
0.0454545454545
0.038961038961
0.038961038961
0.038961038961
0.0357142857143
0.038961038961
0.0422077922078
0.038961038961
0.0357142857143
0.0422077922078
0.038961038961
0.0357142857143
0.0324675324675
0.0422077922078
0.0974025974026
0.116883116883
0.112679031989
0.0551948051948
0.0584415584416
0.142857142857
0.0714285714286
0.0454545454545
0.025974025974
0.0292207792208
0.0194805194805
0.0194805194805
0.012987012987
0.012987012987
0.012987012987
0.012987012987
0.00649350649351
0.00649350649351
0.00649350649351
0.00974025974026
0.00974025974026
0.012987012987
0.0162337662338
0.0227272727273
0.0357142857143
0.0357142857143
0.025974025974
0.025974025974
7
unknown
175
212
81
132
36.6878726557
0.0
0.0
0.0
0.0
0.0367647058824
0.0294117647059
0.0294117647059
0.0220588235294
0.102941176471
0.132352941176
0.110294117647
0.0808823529412
0.0661764705882
0.0514705882353
0.0441176470588
0.0441176470588
0.0294117647059
0.0514705882353
0.0367647058824
0.0147058823529
0.0294117647059
0.0147058823529
0.0294117647059
0.0220588235294
0.0147058823529
0.0936870752752
0.0220588235294
0.0294117647059
0.0147058823529
0.0294117647059
0.0294117647059
0.0367647058824
0.0514705882353
0.0514705882353
0.0661764705882
0.0955882352941
0.132352941176
0.0588235294118
0.00735294117647
0.0147058823529
0.0147058823529
0.0147058823529
0.0147058823529
0.0220588235294
0.0294117647059
0.0367647058824
0.0441176470588
0.0367647058824
0.0220588235294
0.0147058823529
0.00735294117647
10
ellipse
142
209
411
525
59.4810894319
0.0
0.0
0.0
0.0
0.0
0.0
0.0
0.0
0.0
0.0
0.0
0.042471042471
0.138996138996
0.119691119691
0.0579150579151
0.0694980694981
0.0617760617761
0.0617760617761
0.0540540540541
0.0656370656371
0.042471042471
0.0540540540541
0.0540540540541
0.0656370656371
0.108108108108
0.157235103345
0.027027027027
0.034749034749
0.030888030888
0.034749034749
0.030888030888
0.042471042471
0.042471042471
0.046332046332
0.042471042471
0.042471042471
0.0501930501931
0.0501930501931
0.034749034749
0.023166023166
0.023166023166
0.015444015444
0.015444015444
0.011583011583
0.015444015444
0.011583011583
0.015444015444
0.011583011583
0.015444015444
0.011583011583
0.011583011583
2
unknown
20
211
43
217
142.888068081
0.0
0.0
0.0
0.0
0.0
0.0
0.0
0.0
0.0
0.0411764705882
0.0308823529412
0.126470588235
0.144117647059
0.122058823529
0.1
0.0720588235294
0.0661764705882
0.0558823529412
0.0558823529412
0.05
0.025
0.0205882352941
0.0235294117647
0.0367647058824
0.0279411764706
0.133748299411
0.0205882352941
0.0235294117647
0.0411764705882
0.107352941176
0.0691176470588
0.0544117647059
0.0544117647059
0.0382352941176
0.0323529411765
0.0279411764706
0.0264705882353
0.025
0.0205882352941
0.0514705882353
0.0191176470588
0.0205882352941
0.0220588235294
0.0264705882353
0.025
0.0205882352941
0.0176470588235
0.0132352941176
0.0161764705882
0.0117647058824
0.0117647058824
8
rectangle
20
211
219
388
126.150703526
0.0
0.0
0.0
0.0
0.0
0.0
0.0
0.0
0.0
0.0
0.0
0.0
0.0
0.0
0.0
0.0
0.129078014184
0.0836879432624
0.143262411348
0.170212765957
0.116312056738
0.109219858156
0.0964539007092
0.086524822695
0.063829787234
0.232842373226
0.0354609929078
0.0340425531915
0.0382978723404
0.041134751773
0.0482269503546
0.0553191489362
0.0553191489362
0.045390070922
0.0382978723404
0.0354609929078
0.0312056737589
0.0283687943262
0.022695035461
0.0141843971631
0.0156028368794
0.0170212765957
0.0198581560284
0.022695035461
0.0269503546099
0.0255319148936
0.0241134751773
0.0198581560284
0.0198581560284
0.0170212765957
0.0156028368794
9
unknown
19
211
390
563
141.904897731
0.0
0.0
0.0
0.0
0.0
0.0
0.0
0.0
0.0
0.0294550810015
0.0382916053019
0.111929307806
0.160530191458
0.116347569956
0.0957290132548
0.0839469808542
0.0559646539028
0.0456553755523
0.0633284241532
0.0515463917526
0.039764359352
0.0220913107511
0.0220913107511
0.0353460972018
0.0265095729013
0.13577713301
0.020618556701
0.0235640648012
0.0427098674521
0.122238586156
0.0559646539028
0.0515463917526
0.0574374079529
0.0382916053019
0.0338733431517
0.0279823269514
0.0250368188513
0.0250368188513
0.020618556701
0.0132547864507
0.0147275405007
0.0147275405007
0.0176730486009
0.0176730486009
0.0220913107511
0.020618556701
0.0176730486009
0.0147275405007
0.0132547864507
0.0117820324006
0.0117820324006
3
rectangle
80
211
43
78
68.249542123
0.0
0.0
0.0
0.0
0.0
0.0359477124183
0.0915032679739
0.062091503268
0.0490196078431
0.0490196078431
0.0392156862745
0.0490196078431
0.0392156862745
0.0424836601307
0.0392156862745
0.0392156862745
0.0359477124183
0.0359477124183
0.0392156862745
0.0359477124183
0.0424836601307
0.0392156862745
0.0359477124183
0.143790849673
0.0522875816993
0.110504134178
0.0490196078431
0.0718954248366
0.124183006536
0.0718954248366
0.0490196078431
0.0294117647059
0.0294117647059
0.0196078431373
0.016339869281
0.0130718954248
0.0130718954248
0.0130718954248
0.00980392156863
0.00980392156863
0.00326797385621
0.00980392156863
0.00653594771242
0.00980392156863
0.00980392156863
0.016339869281
0.0261437908497
0.0294117647059
0.0686274509804
0.0457516339869
0.0261437908497
20
4
11
1
1
0.0379357572938
touch
4
5
1
1
0.265653668243
touch
4
12
1
1
0.208439930744
touch
4
7
1
1
0.0367470346538
touch
2
4
1
1
0.948455882353
touch
4
8
1
1
0.618746102557
floor
4
9
1
1
0.95104327951
touch
3
4
1
1
0.207509626069
touch
11
12
1
1
0.181998512274
touch
10
11
1
1
0.143429408891
touch
5
7
1
1
0.138326848249
touch
2
5
1
1
0.251960784314
touch
3
5
1
1
0.781128404669
touch
10
12
1
1
0.788080117245
touch
9
12
1
1
0.198235395316
touch
3
7
1
1
0.177085927771
touch
9
10
1
1
0.251542185849
touch
2
8
1
1
0.652372043939
floor
2
3
1
1
0.19681372549
touch
8
9
1
1
0.650597208231
floor
