contour_details : [610 160],[610 824],[1844 824],[1844 465],[1150 465],[1149 464],[1149 160] : dining : [976,704]
contour_details : [60 155],[60 949],[594 949],[594 160],[563 160],[562 159],[456 159],[455 158],[349 158],[348 157],[242 157],[241 156],[135 156],[134 155] : living : [289,428]
contour_details : [1460 60],[1460 449],[1844 449],[1844 60] : entry : [1702,242]
