contour_details : [272 591],[272 822],[431 822],[431 672],[430 671],[430 601],[426 601],[425 600],[410 600],[409 599],[394 599],[393 598],[378 598],[377 597],[363 597],[362 596],[347 596],[346 595],[331 595],[330 594],[315 594],[314 593],[299 593],[298 592],[283 592],[282 591] : wc : [352,663]
contour_details : [994 483],[994 578],[1008 578],[1009 579],[1009 878],[1540 878],[1540 815],[1541 814],[1541 618],[1542 617],[1542 483] : bedroom : [1191,628]
contour_details : [461 122],[432 151],[431 151],[393 189],[392 189],[355 226],[354 226],[316 264],[315 264],[278 301],[277 301],[239 339],[238 339],[201 376],[200 376],[162 414],[161 414],[154 421],[154 468],[153 469],[153 568],[276 568],[277 569],[294 569],[295 570],[312 570],[313 571],[330 571],[331 572],[347 572],[348 573],[365 573],[366 574],[383 574],[384 575],[401 575],[402 576],[419 576],[420 577],[979 577],[979 122] : living : [750,514]
