contour_details : [1150 960],[1150 1384],[1889 1384],[1889 960] : kitchen : [1631,1190]
contour_details : [1015 540],[1015 939],[1889 939],[1889 540] : dining : [1679,720]
contour_details : [1020 100],[1020 489],[1589 489],[1589 469],[1590 468],[1590 391],[1591 390],[1591 313],[1592 312],[1592 235],[1593 234],[1593 157],[1594 156],[1594 100] : entry : [1408,295]
contour_details : [834 100],[831 103],[830 103],[825 108],[824 108],[820 112],[819 112],[814 117],[813 117],[809 121],[808 121],[804 125],[803 125],[798 130],[797 130],[793 134],[792 134],[787 139],[786 139],[782 143],[781 143],[776 148],[775 148],[771 152],[770 152],[765 157],[764 157],[760 161],[759 161],[754 166],[753 166],[749 170],[748 170],[743 175],[742 175],[738 179],[737 179],[733 183],[732 183],[727 188],[726 188],[722 192],[721 192],[716 197],[715 197],[711 201],[710 201],[705 206],[704 206],[700 210],[699 210],[694 215],[693 215],[689 219],[688 219],[683 224],[682 224],[678 228],[677 228],[672 233],[671 233],[667 237],[666 237],[662 241],[661 241],[656 246],[655 246],[651 250],[650 250],[645 255],[644 255],[640 259],[639 259],[634 264],[633 264],[629 268],[628 268],[623 273],[622 273],[618 277],[617 277],[612 282],[611 282],[607 286],[606 286],[601 291],[600 291],[596 295],[595 295],[591 299],[590 299],[585 304],[584 304],[580 308],[579 308],[574 313],[573 313],[569 317],[568 317],[563 322],[562 322],[558 326],[557 326],[552 331],[551 331],[547 335],[546 335],[541 340],[540 340],[536 344],[535 344],[530 349],[529 349],[525 353],[524 353],[520 357],[519 357],[514 362],[513 362],[509 366],[508 366],[503 371],[502 371],[498 375],[497 375],[492 380],[491 380],[487 384],[486 384],[481 389],[480 389],[476 393],[475 393],[470 398],[469 398],[465 402],[464 402],[459 407],[458 407],[454 411],[453 411],[449 415],[448 415],[443 420],[442 420],[438 424],[437 424],[432 429],[431 429],[427 433],[426 433],[421 438],[420 438],[416 442],[415 442],[410 447],[409 447],[405 451],[404 451],[399 456],[398 456],[394 460],[393 460],[388 465],[387 465],[383 469],[382 469],[378 473],[377 473],[372 478],[371 478],[367 482],[366 482],[361 487],[360 487],[356 491],[355 491],[350 496],[349 496],[345 500],[344 500],[339 505],[338 505],[334 509],[333 509],[328 514],[327 514],[323 518],[322 518],[317 523],[316 523],[312 527],[311 527],[307 531],[306 531],[301 536],[300 536],[296 540],[295 540],[290 545],[289 545],[285 549],[284 549],[279 554],[278 554],[274 558],[273 558],[268 563],[267 563],[263 567],[262 567],[257 572],[256 572],[252 576],[251 576],[246 581],[245 581],[241 585],[240 585],[236 589],[235 589],[230 594],[229 594],[225 598],[224 598],[219 603],[218 603],[214 607],[213 607],[208 612],[207 612],[203 616],[202 616],[197 621],[196 621],[192 625],[191 625],[186 630],[185 630],[181 634],[180 634],[175 639],[174 639],[170 643],[169 643],[165 647],[164 647],[159 652],[158 652],[154 656],[153 656],[148 661],[147 661],[143 665],[142 665],[137 670],[136 670],[132 674],[131 674],[126 679],[125 679],[125 680],[126 681],[126 682],[129 685],[129 686],[131 688],[131 689],[133 691],[133 692],[135 694],[135 695],[138 698],[138 699],[140 701],[140 702],[142 704],[142 705],[144 707],[144 708],[146 710],[146 711],[149 714],[149 715],[151 717],[151 718],[153 720],[153 721],[155 723],[155 724],[158 727],[158 728],[160 730],[160 731],[162 733],[162 734],[164 736],[164 737],[166 739],[166 740],[169 743],[169 744],[171 746],[171 747],[173 749],[173 750],[175 752],[175 753],[177 755],[177 756],[180 759],[180 760],[182 762],[182 763],[184 765],[184 766],[186 768],[186 769],[189 772],[189 773],[191 775],[191 776],[193 778],[193 779],[195 781],[195 782],[197 784],[197 785],[200 788],[200 789],[202 791],[202 792],[204 794],[204 795],[206 797],[206 798],[208 800],[208 801],[211 804],[211 805],[213 807],[213 808],[215 810],[215 811],[217 813],[217 814],[220 817],[220 818],[222 820],[222 821],[224 823],[224 824],[226 826],[226 827],[228 829],[228 830],[231 833],[231 834],[233 836],[233 837],[235 839],[235 840],[237 842],[237 843],[240 846],[240 847],[242 849],[242 850],[244 852],[244 853],[246 855],[246 856],[248 858],[248 859],[251 862],[251 863],[253 865],[253 866],[255 868],[255 869],[257 871],[257 872],[259 874],[259 875],[262 878],[262 879],[264 881],[264 882],[266 884],[266 885],[268 887],[268 888],[271 891],[271 892],[273 894],[273 895],[275 897],[275 898],[277 900],[277 901],[279 903],[279 904],[282 907],[282 908],[284 910],[284 911],[286 913],[286 914],[288 916],[288 917],[290 919],[290 920],[293 923],[293 924],[295 926],[295 927],[297 929],[297 930],[299 932],[299 933],[302 936],[302 937],[304 939],[304 940],[306 942],[306 943],[308 945],[308 946],[310 948],[310 949],[313 952],[313 953],[315 955],[315 956],[317 958],[317 959],[319 961],[319 962],[322 965],[322 966],[324 968],[324 969],[326 971],[326 972],[328 974],[328 975],[330 977],[330 978],[333 981],[333 982],[335 984],[335 985],[337 987],[337 988],[339 990],[339 991],[341 993],[341 994],[344 997],[344 998],[346 1000],[346 1001],[348 1003],[348 1004],[350 1006],[350 1007],[353 1010],[353 1011],[355 1013],[355 1014],[357 1016],[357 1017],[359 1019],[359 1020],[361 1022],[361 1023],[364 1026],[364 1027],[366 1029],[366 1030],[368 1032],[368 1033],[370 1035],[370 1036],[372 1038],[372 1039],[375 1042],[375 1043],[377 1045],[377 1046],[379 1048],[379 1049],[381 1051],[381 1052],[384 1055],[384 1056],[386 1058],[386 1059],[388 1061],[388 1062],[390 1064],[390 1065],[392 1067],[392 1068],[395 1071],[395 1072],[397 1074],[397 1075],[399 1077],[399 1078],[401 1080],[401 1081],[404 1084],[404 1085],[406 1087],[406 1088],[408 1090],[408 1091],[410 1093],[410 1094],[412 1096],[412 1097],[415 1100],[415 1101],[417 1103],[417 1104],[419 1106],[419 1107],[421 1109],[421 1110],[423 1112],[423 1113],[426 1116],[426 1117],[428 1119],[428 1120],[430 1122],[430 1123],[432 1125],[432 1126],[435 1129],[435 1130],[437 1132],[437 1133],[439 1135],[439 1136],[441 1138],[441 1139],[443 1141],[443 1142],[446 1145],[446 1146],[448 1148],[448 1149],[450 1151],[450 1152],[452 1154],[452 1155],[454 1157],[454 1158],[457 1161],[457 1162],[459 1164],[459 1165],[461 1167],[461 1168],[463 1170],[463 1171],[466 1174],[466 1175],[468 1177],[468 1178],[470 1180],[470 1181],[472 1183],[472 1184],[474 1186],[474 1187],[477 1190],[477 1191],[479 1193],[479 1194],[481 1196],[481 1197],[483 1199],[483 1200],[486 1203],[486 1204],[488 1206],[488 1207],[490 1209],[490 1210],[492 1212],[492 1213],[494 1215],[494 1216],[497 1219],[497 1220],[499 1222],[499 1223],[501 1225],[501 1226],[503 1228],[503 1229],[505 1231],[505 1232],[508 1235],[508 1236],[510 1238],[510 1239],[512 1241],[512 1242],[514 1244],[514 1245],[517 1248],[517 1249],[519 1251],[519 1252],[521 1254],[521 1255],[523 1257],[523 1258],[525 1260],[525 1261],[528 1264],[528 1265],[530 1267],[530 1268],[532 1270],[532 1271],[534 1273],[534 1274],[535 1274],[540 1269],[541 1269],[548 1262],[549 1262],[555 1256],[556 1256],[563 1249],[564 1249],[571 1242],[572 1242],[578 1236],[579 1236],[586 1229],[587 1229],[594 1222],[595 1222],[601 1216],[602 1216],[609 1209],[610 1209],[617 1202],[618 1202],[625 1195],[626 1195],[632 1189],[633 1189],[640 1182],[641 1182],[648 1175],[649 1175],[655 1169],[656 1169],[663 1162],[664 1162],[671 1155],[672 1155],[678 1149],[679 1149],[686 1142],[687 1142],[694 1135],[695 1135],[702 1128],[703 1128],[709 1122],[710 1122],[717 1115],[718 1115],[725 1108],[726 1108],[732 1102],[733 1102],[740 1095],[741 1095],[748 1088],[749 1088],[755 1082],[756 1082],[763 1075],[764 1075],[771 1068],[772 1068],[779 1061],[780 1061],[786 1055],[787 1055],[794 1048],[795 1048],[802 1041],[803 1041],[809 1035],[810 1035],[817 1028],[818 1028],[825 1021],[826 1021],[832 1015],[833 1015],[840 1008],[841 1008],[848 1001],[849 1001],[856 994],[857 994],[863 988],[864 988],[871 981],[872 981],[879 974],[880 974],[886 968],[887 968],[894 961],[895 961],[902 954],[903 954],[909 948],[910 948],[917 941],[918 941],[920 939],[994 939],[994 100] : living : [547,854]
