contour_details : [271 592],[271 817],[432 817],[432 673],[431 672],[431 604],[428 604],[427 603],[414 603],[413 602],[401 602],[400 601],[388 601],[387 600],[374 600],[373 599],[361 599],[360 598],[347 598],[346 597],[334 597],[333 596],[321 596],[320 595],[307 595],[306 594],[294 594],[293 593],[280 593],[279 592] : wc : [352,663]
contour_details : [1008 490],[1008 870],[1539 870],[1539 691],[1538 690],[1538 605],[1537 604],[1533 604],[1532 603],[1528 603],[1527 602],[1524 602],[1523 601],[1519 601],[1518 600],[1515 600],[1514 599],[1510 599],[1509 598],[1505 598],[1504 597],[1501 597],[1500 596],[1496 596],[1495 595],[1491 595],[1490 594],[1487 594],[1486 593],[1482 593],[1481 592],[1478 592],[1477 591],[1473 591],[1472 590],[1468 590],[1467 589],[1464 589],[1463 588],[1459 588],[1458 587],[1454 587],[1453 586],[1450 586],[1449 585],[1445 585],[1444 584],[1441 584],[1440 583],[1436 583],[1435 582],[1431 582],[1430 581],[1427 581],[1426 580],[1422 580],[1421 579],[1418 579],[1417 578],[1413 578],[1412 577],[1408 577],[1407 576],[1404 576],[1403 575],[1399 575],[1398 574],[1394 574],[1393 573],[1390 573],[1389 572],[1385 572],[1384 571],[1381 571],[1380 570],[1376 570],[1375 569],[1371 569],[1370 568],[1367 568],[1366 567],[1362 567],[1361 566],[1358 566],[1357 565],[1353 565],[1352 564],[1348 564],[1347 563],[1344 563],[1343 562],[1339 562],[1338 561],[1334 561],[1333 560],[1330 560],[1329 559],[1325 559],[1324 558],[1321 558],[1320 557],[1316 557],[1315 556],[1311 556],[1310 555],[1307 555],[1306 554],[1302 554],[1301 553],[1297 553],[1296 552],[1293 552],[1292 551],[1288 551],[1287 550],[1284 550],[1283 549],[1279 549],[1278 548],[1274 548],[1273 547],[1270 547],[1269 546],[1265 546],[1264 545],[1261 545],[1260 544],[1256 544],[1255 543],[1251 543],[1250 542],[1247 542],[1246 541],[1242 541],[1241 540],[1237 540],[1236 539],[1233 539],[1232 538],[1228 538],[1227 537],[1224 537],[1223 536],[1219 536],[1218 535],[1214 535],[1213 534],[1210 534],[1209 533],[1205 533],[1204 532],[1201 532],[1200 531],[1196 531],[1195 530],[1191 530],[1190 529],[1187 529],[1186 528],[1182 528],[1181 527],[1177 527],[1176 526],[1173 526],[1172 525],[1168 525],[1167 524],[1164 524],[1163 523],[1159 523],[1158 522],[1154 522],[1153 521],[1150 521],[1149 520],[1145 520],[1144 519],[1140 519],[1139 518],[1136 518],[1135 517],[1131 517],[1130 516],[1127 516],[1126 515],[1122 515],[1121 514],[1117 514],[1116 513],[1113 513],[1112 512],[1108 512],[1107 511],[1104 511],[1103 510],[1099 510],[1098 509],[1094 509],[1093 508],[1090 508],[1089 507],[1085 507],[1084 506],[1080 506],[1079 505],[1076 505],[1075 504],[1071 504],[1070 503],[1067 503],[1066 502],[1062 502],[1061 501],[1057 501],[1056 500],[1053 500],[1052 499],[1048 499],[1047 498],[1044 498],[1043 497],[1039 497],[1038 496],[1034 496],[1033 495],[1030 495],[1029 494],[1025 494],[1024 493],[1020 493],[1019 492],[1016 492],[1015 491],[1011 491],[1010 490] : bedroom : [1191,628]
contour_details : [459 120],[433 146],[432 146],[399 179],[398 179],[365 212],[364 212],[331 245],[330 245],[297 278],[296 278],[263 311],[262 311],[229 344],[228 344],[195 377],[194 377],[161 410],[160 410],[154 416],[154 561],[274 561],[275 562],[287 562],[288 563],[301 563],[302 564],[314 564],[315 565],[328 565],[329 566],[341 566],[342 567],[355 567],[356 568],[368 568],[369 569],[381 569],[382 570],[395 570],[396 571],[408 571],[409 572],[422 572],[423 573],[486 573],[487 574],[672 574],[673 575],[858 575],[859 576],[989 576],[989 485],[985 485],[984 484],[974 484],[973 483],[973 446],[930 446],[929 445],[929 400],[903 400],[902 399],[902 120] : living : [750,514]
