25
3
0
2
circle
51
165
53
168
58.412327466
0.0
0.0
0.0
0.0
0.0
0.0
0.0
0.0
0.0
0.0
0.0
0.0
0.0
0.0
0.0
0.0
0.0
0.0
0.0
0.0
0.0
0.0
0.0
0.195652173913
0.801242236025
0.252636148361
0.0465838509317
0.0434782608696
0.0403726708075
0.0434782608696
0.0372670807453
0.0310559006211
0.0310559006211
0.0372670807453
0.0434782608696
0.0403726708075
0.0434782608696
0.0434782608696
0.0310559006211
0.0217391304348
0.0217391304348
0.0186335403727
0.0186335403727
0.0186335403727
0.0155279503106
0.0186335403727
0.0186335403727
0.0186335403727
0.0217391304348
0.0186335403727
0.0217391304348
4
unknown
175
205
96
125
15.8113883008
0.0
0.0
0.0
0.0
0.0
0.0
0.0
0.0
0.0
0.0
0.0
0.0
0.0
0.0
0.0
0.0
0.0
0.0
0.0
0.0
0.134146341463
0.207317073171
0.219512195122
0.256097560976
0.158536585366
0.265575763671
0.0365853658537
0.0487804878049
0.0487804878049
0.0487804878049
0.0243902439024
0.0365853658537
0.0365853658537
0.0365853658537
0.0487804878049
0.0365853658537
0.0487804878049
0.0487804878049
0.0121951219512
0.0243902439024
0.0121951219512
0.0243902439024
0.0121951219512
0.0243902439024
0.0121951219512
0.0243902439024
0.0121951219512
0.0243902439024
0.0121951219512
0.0243902439024
0.0121951219512
3
unknown
11
40
96
125
15.8113883008
0.0
0.0
0.0
0.0
0.0
0.0
0.0
0.0
0.0
0.0
0.0
0.0
0.0
0.0
0.0
0.0
0.0
0.0
0.0
0.0
0.182926829268
0.19512195122
0.19512195122
0.219512195122
0.170731707317
0.26633611261
0.0365853658537
0.0487804878049
0.0487804878049
0.0487804878049
0.0365853658537
0.0243902439024
0.0365853658537
0.0365853658537
0.0487804878049
0.0365853658537
0.0487804878049
0.0487804878049
0.0121951219512
0.0243902439024
0.0121951219512
0.0243902439024
0.0121951219512
0.0243902439024
0.0121951219512
0.0243902439024
0.0121951219512
0.0243902439024
0.0121951219512
0.0243902439024
0.0121951219512
0
