contour_details : [551 979],[551 982],[550 983],[550 987],[549 988],[549 991],[548 992],[548 996],[547 997],[547 1000],[546 1001],[546 1005],[545 1006],[545 1009],[544 1010],[544 1014],[543 1015],[543 1018],[542 1019],[542 1023],[541 1024],[541 1027],[540 1028],[540 1032],[539 1033],[539 1036],[538 1037],[538 1041],[537 1042],[537 1045],[536 1046],[536 1050],[535 1051],[535 1054],[534 1055],[534 1059],[533 1060],[533 1063],[532 1064],[532 1068],[531 1069],[531 1072],[530 1073],[530 1076],[531 1077],[535 1077],[536 1078],[539 1078],[540 1079],[544 1079],[545 1080],[548 1080],[549 1081],[553 1081],[554 1082],[557 1082],[558 1083],[562 1083],[563 1084],[566 1084],[567 1085],[571 1085],[572 1086],[575 1086],[576 1087],[580 1087],[581 1088],[584 1088],[585 1089],[589 1089],[590 1090],[593 1090],[594 1091],[597 1091],[598 1092],[602 1092],[603 1093],[606 1093],[607 1094],[611 1094],[612 1095],[615 1095],[616 1096],[620 1096],[621 1097],[624 1097],[625 1098],[629 1098],[630 1099],[633 1099],[634 1100],[638 1100],[639 1101],[642 1101],[643 1102],[647 1102],[648 1103],[651 1103],[652 1104],[656 1104],[657 1105],[660 1105],[661 1106],[665 1106],[666 1107],[669 1107],[669 1104],[670 1103],[670 1099],[671 1098],[671 1095],[672 1094],[672 1090],[673 1089],[673 1086],[674 1085],[674 1081],[675 1080],[675 1077],[676 1076],[676 1072],[677 1071],[677 1068],[678 1067],[678 1063],[679 1062],[679 1059],[680 1058],[680 1054],[681 1053],[681 1050],[682 1049],[682 1045],[683 1044],[683 1041],[684 1040],[684 1036],[685 1035],[685 1032],[686 1031],[686 1027],[687 1026],[687 1023],[688 1022],[688 1018],[689 1017],[689 1014],[690 1013],[690 1010],[689 1009],[685 1009],[684 1008],[681 1008],[680 1007],[676 1007],[675 1006],[672 1006],[671 1005],[667 1005],[666 1004],[663 1004],[662 1003],[658 1003],[657 1002],[654 1002],[653 1001],[649 1001],[648 1000],[645 1000],[644 999],[640 999],[639 998],[636 998],[635 997],[631 997],[630 996],[627 996],[626 995],[623 995],[622 994],[618 994],[617 993],[614 993],[613 992],[609 992],[608 991],[605 991],[604 990],[600 990],[599 989],[596 989],[595 988],[591 988],[590 987],[587 987],[586 986],[582 986],[581 985],[578 985],[577 984],[573 984],[572 983],[569 983],[568 982],[564 982],[563 981],[560 981],[559 980],[555 980],[554 979]
contour_details : [1273 422],[1273 593],[1372 593],[1372 422]
contour_details : [370 277],[370 376],[494 376],[494 277]
