contour_details : [700 503],[699 504],[698 504],[697 505],[695 505],[694 506],[693 506],[692 507],[691 507],[690 508],[689 508],[688 509],[687 509],[686 510],[685 510],[684 511],[683 511],[682 512],[681 512],[680 513],[679 513],[678 514],[677 514],[676 515],[675 515],[674 516],[673 516],[672 517],[671 517],[670 518],[669 518],[668 519],[667 519],[666 520],[665 520],[664 521],[662 521],[661 522],[660 522],[659 523],[658 523],[657 524],[656 524],[655 525],[654 525],[653 526],[652 526],[651 527],[650 527],[649 528],[648 528],[647 529],[646 529],[645 530],[644 530],[643 531],[642 531],[641 532],[640 532],[639 533],[638 533],[637 534],[636 534],[635 535],[634 535],[633 536],[632 536],[631 537],[630 537],[629 538],[627 538],[626 539],[625 539],[624 540],[623 540],[622 541],[621 541],[620 542],[619 542],[618 543],[617 543],[616 544],[615 544],[614 545],[613 545],[612 546],[611 546],[610 547],[609 547],[608 548],[607 548],[606 549],[605 549],[604 550],[603 550],[602 551],[601 551],[600 552],[599 552],[598 553],[597 553],[596 554],[595 554],[594 555],[592 555],[591 556],[590 556],[589 557],[588 557],[587 558],[586 558],[585 559],[584 559],[583 560],[582 560],[581 561],[580 561],[579 562],[578 562],[577 563],[576 563],[575 564],[574 564],[573 565],[572 565],[571 566],[570 566],[569 567],[568 567],[567 568],[566 568],[565 569],[564 569],[563 570],[562 570],[561 571],[560 571],[559 572],[557 572],[556 573],[555 573],[554 574],[553 574],[552 575],[551 575],[550 576],[549 576],[548 577],[547 577],[546 578],[545 578],[544 579],[543 579],[542 580],[541 580],[540 581],[539 581],[538 582],[537 582],[536 583],[535 583],[534 584],[533 584],[532 585],[531 585],[530 586],[529 586],[528 587],[528 668],[527 669],[527 923],[526 924],[526 1177],[525 1178],[525 1349],[1492 1349],[1492 503] : living : [936,1105]
contour_details : [1306 203],[1306 217],[1305 218],[1305 263],[1304 264],[1304 309],[1303 310],[1303 356],[1302 357],[1302 402],[1301 403],[1301 448],[1300 449],[1300 480],[1493 480],[1493 203] : wc : [1384,347]
contour_details : [102 108],[102 159],[103 160],[103 236],[104 237],[104 313],[105 314],[105 390],[106 391],[106 467],[107 468],[107 543],[108 544],[108 568],[138 568],[139 569],[241 569],[242 570],[344 570],[345 571],[447 571],[448 572],[520 572],[521 571],[523 571],[524 570],[525 570],[526 569],[527 569],[528 568],[529 568],[530 567],[531 567],[532 566],[533 566],[534 565],[535 565],[536 564],[537 564],[538 563],[539 563],[540 562],[541 562],[542 561],[543 561],[544 560],[546 560],[547 559],[548 559],[549 558],[550 558],[551 557],[552 557],[553 556],[554 556],[555 555],[556 555],[557 554],[558 554],[559 553],[560 553],[561 552],[562 552],[563 551],[564 551],[565 550],[566 550],[567 549],[568 549],[569 548],[571 548],[572 547],[573 547],[574 546],[575 546],[576 545],[577 545],[578 544],[579 544],[580 543],[581 543],[582 542],[583 542],[584 541],[585 541],[586 540],[587 540],[588 539],[589 539],[590 538],[591 538],[592 537],[594 537],[595 536],[596 536],[597 535],[598 535],[599 534],[600 534],[601 533],[602 533],[603 532],[604 532],[605 531],[606 531],[607 530],[608 530],[609 529],[610 529],[611 528],[612 528],[613 527],[614 527],[615 526],[617 526],[618 525],[619 525],[620 524],[621 524],[622 523],[623 523],[624 522],[625 522],[626 521],[627 521],[628 520],[629 520],[630 519],[631 519],[632 518],[633 518],[634 517],[635 517],[636 516],[637 516],[638 515],[640 515],[641 514],[642 514],[643 513],[644 513],[645 512],[646 512],[647 511],[648 511],[649 510],[650 510],[651 509],[652 509],[653 508],[654 508],[655 507],[656 507],[657 506],[658 506],[659 505],[660 505],[661 504],[662 504],[663 503],[665 503],[666 502],[667 502],[668 501],[669 501],[670 500],[671 500],[672 499],[673 499],[674 498],[675 498],[676 497],[677 497],[678 496],[679 496],[680 495],[681 495],[682 494],[683 494],[684 493],[684 108] : bedroom : [332,287]
