25
3
1.06561173292
4
rectangle
94
170
21
105
54.5618914628
0.0
0.0
0.0
0.0
0.0
0.0
0.0
0.0
0.0
0.0
0.0
0.0
0.0
0.0
0.000103476821192
0.000310430463576
0.00051738410596
0.0051738410596
0.00403559602649
0.00631208609272
0.00486341059603
0.00372516556291
0.00289735099338
0.00403559602649
0.00237996688742
0.0
0.0
0.0
0.0
0.0
0.0
0.0
0.0
0.0
0.0
0.0
0.0
0.0
0.0
0.000103476821192
0.000310430463576
0.00051738410596
0.0051738410596
0.00403559602649
0.00631208609272
0.00486341059603
0.00372516556291
0.00289735099338
0.00403559602649
0.00237996688742
0.232228483951
0.00103476821192
0.0012417218543
0.0013451986755
0.0012417218543
0.00155215231788
0.00175910596026
0.00144867549669
0.00175910596026
0.00165562913907
0.0012417218543
0.0013451986755
0.0012417218543
0.000827814569536
0.00051738410596
0.000724337748344
0.000620860927152
0.000827814569536
0.000827814569536
0.000620860927152
0.000931291390728
0.000620860927152
0.000724337748344
0.00051738410596
0.000620860927152
0.000413907284768
0.00103476821192
0.0012417218543
0.0013451986755
0.0012417218543
0.00155215231788
0.00175910596026
0.00144867549669
0.00175910596026
0.00165562913907
0.0012417218543
0.0013451986755
0.0012417218543
0.000827814569536
0.00051738410596
0.000724337748344
0.000620860927152
0.000827814569536
0.000827814569536
0.000620860927152
0.000931291390728
0.000620860927152
0.000724337748344
0.00051738410596
0.000620860927152
0.000413907284768
3
rectangle
10
86
21
105
54.5618914628
0.0
0.0
0.0
0.0
0.0
0.0
0.0
0.0
0.0
0.0
0.0
0.0
0.0
0.0
0.000103476821192
0.000310430463576
0.00051738410596
0.0051738410596
0.00403559602649
0.00631208609272
0.00486341059603
0.00372516556291
0.00289735099338
0.00413907284768
0.00227649006623
0.0
0.0
0.0
0.0
0.0
0.0
0.0
0.0
0.0
0.0
0.0
0.0
0.0
0.0
0.000103476821192
0.000310430463576
0.00051738410596
0.0051738410596
0.00403559602649
0.00631208609272
0.00486341059603
0.00372516556291
0.00289735099338
0.00413907284768
0.00227649006623
0.236607633165
0.00103476821192
0.0012417218543
0.0013451986755
0.0012417218543
0.00155215231788
0.00175910596026
0.00155215231788
0.00165562913907
0.00165562913907
0.0012417218543
0.0013451986755
0.0012417218543
0.000827814569536
0.00051738410596
0.000724337748344
0.000620860927152
0.000827814569536
0.000827814569536
0.000620860927152
0.000931291390728
0.000620860927152
0.000724337748344
0.00051738410596
0.000620860927152
0.000413907284768
0.00103476821192
0.0012417218543
0.0013451986755
0.0012417218543
0.00155215231788
0.00175910596026
0.00155215231788
0.00165562913907
0.00165562913907
0.0012417218543
0.0013451986755
0.0012417218543
0.000827814569536
0.00051738410596
0.000724337748344
0.000620860927152
0.000827814569536
0.000827814569536
0.000620860927152
0.000931291390728
0.000620860927152
0.000724337748344
0.00051738410596
0.000620860927152
0.000413907284768
2
rectangle
4
177
4
111
101.019800039
0.0
0.0
0.0
0.0
0.0
0.0
0.0
0.0
0.0
0.0
0.0
0.0
0.0
1.3699977518e-06
7.0256294964e-07
5.62050359712e-07
4.21537769784e-07
1.54563848921e-06
1.61589478417e-06
2.7399955036e-06
2.03743255396e-06
3.19666142086e-06
2.45897032374e-06
2.23063736511e-06
2.01986848022e-06
0.0
0.0
0.0
0.0
0.0
0.0
0.0
0.0
0.0
0.0
0.0
0.0
0.0
1.3699977518e-06
7.0256294964e-07
5.62050359712e-07
4.21537769784e-07
1.54563848921e-06
1.61589478417e-06
2.7399955036e-06
2.03743255396e-06
3.19666142086e-06
2.45897032374e-06
2.23063736511e-06
2.01986848022e-06
0.0
0.0
0.0
0.0
0.0
0.0
0.0
0.0
0.0
0.0
0.0
0.0
0.0
1.3699977518e-06
7.0256294964e-07
5.62050359712e-07
4.21537769784e-07
1.54563848921e-06
1.61589478417e-06
2.7399955036e-06
2.03743255396e-06
3.19666142086e-06
2.45897032374e-06
2.23063736511e-06
2.01986848022e-06
0.0307509322703
7.55255170863e-07
7.72819244604e-07
8.43075539568e-07
8.7820368705e-07
1.15922886691e-06
1.15922886691e-06
9.13331834532e-07
9.13331834532e-07
8.07947392086e-07
7.0256294964e-07
6.67434802158e-07
6.67434802158e-07
4.21537769784e-07
3.33717401079e-07
3.33717401079e-07
3.33717401079e-07
4.03973696043e-07
4.56665917266e-07
4.74229991007e-07
5.2692221223e-07
6.14742580935e-07
4.39101843525e-07
3.86409622302e-07
3.86409622302e-07
3.5128147482e-07
7.55255170863e-07
7.72819244604e-07
8.43075539568e-07
8.7820368705e-07
1.15922886691e-06
1.15922886691e-06
9.13331834532e-07
9.13331834532e-07
8.07947392086e-07
7.0256294964e-07
6.67434802158e-07
6.67434802158e-07
4.21537769784e-07
3.33717401079e-07
3.33717401079e-07
3.33717401079e-07
4.03973696043e-07
4.56665917266e-07
4.74229991007e-07
5.2692221223e-07
6.14742580935e-07
4.39101843525e-07
3.86409622302e-07
3.86409622302e-07
3.5128147482e-07
7.55255170863e-07
7.72819244604e-07
8.43075539568e-07
8.7820368705e-07
1.15922886691e-06
1.15922886691e-06
9.13331834532e-07
9.13331834532e-07
8.07947392086e-07
7.0256294964e-07
6.67434802158e-07
6.67434802158e-07
4.21537769784e-07
3.33717401079e-07
3.33717401079e-07
3.33717401079e-07
4.03973696043e-07
4.56665917266e-07
4.74229991007e-07
5.2692221223e-07
6.14742580935e-07
4.39101843525e-07
3.86409622302e-07
3.86409622302e-07
3.5128147482e-07
3
2
4
1
1
0.339238701185
floor
2
3
1
1
0.339129003949
floor
3
4
1
1
0.999676637025
floor
