contour_details : [500 765],[500 1189],[944 1189],[944 1000],[890 1000],[889 999],[889 765] : Dining : [777,1079]
contour_details : [1000 705],[1000 999],[999 1000],[960 1000],[960 1189],[1389 1189],[1389 705] : Kitchen : [1273,893]
contour_details : [910 100],[910 388],[1104 388],[1105 389],[1105 489],[1389 489],[1389 100] : Entry : [1252,273]
contour_details : [500 100],[500 754],[894 754],[894 390],[895 389],[899 389],[899 100] : Living : [733,610]
