contour_details : [254 698],[254 889],[253 890],[253 1290],[651 1290],[651 764],[625 764],[624 763],[624 698] : bedroom : [440,876]
contour_details : [1571 609],[1570 610],[1477 610],[1477 662],[1476 663],[1443 663],[1443 730],[1484 730],[1485 731],[1485 807],[1788 807],[1788 609] : wc : [1594,719]
contour_details : [599 103],[599 260],[598 261],[598 591],[672 591],[673 592],[673 824],[731 824],[732 825],[732 882],[1359 882],[1359 735],[1360 734],[1417 734],[1417 103] : living : [1014,603]
