contour_details : [781 841],[757 865],[756 865],[725 896],[724 896],[717 903],[292 903],[292 1228],[293 1229],[293 1384],[1029 1384],[1029 841] : bedroom : [684,1003]
contour_details : [1137 807],[1137 1381],[1247 1381],[1248 1382],[1618 1382],[1619 1383],[1878 1383],[1878 807] : bedroom : [1372,1076]
contour_details : [234 114],[234 227],[233 228],[233 579],[232 580],[232 817],[1030 817],[1030 566],[1031 565],[1133 565],[1134 566],[1134 782],[1294 782],[1294 114] : living : [603,231]
