25
5
1.41421356237
2
rectangle
7
296
23
84
144.678954931
0.0
0.0
0.0
0.0
0.0297805642633
0.0799373040752
0.064263322884
0.0485893416928
0.0485893416928
0.0423197492163
0.0423197492163
0.0391849529781
0.0407523510972
0.0391849529781
0.0391849529781
0.0376175548589
0.0391849529781
0.0376175548589
0.0407523510972
0.0438871473354
0.0423197492163
0.0376175548589
0.0376175548589
0.0376175548589
0.130094043887
0.0917687327562
0.0736677115987
0.0924764890282
0.100313479624
0.064263322884
0.0407523510972
0.0297805642633
0.0219435736677
0.0172413793103
0.0156739811912
0.0141065830721
0.0109717868339
0.012539184953
0.00783699059561
0.00626959247649
0.00470219435737
0.00783699059561
0.00783699059561
0.00940438871473
0.00783699059561
0.0156739811912
0.0172413793103
0.0329153605016
0.0611285266458
0.0548589341693
0.0282131661442
5
rectangle
48
153
85
178
69.4262198308
0.0
0.0
0.0
0.0
0.0
0.0
0.0
0.0
0.0
0.0
0.0
0.0
0.0
0.0
0.0
0.0
0.12987012987
0.12987012987
0.192207792208
0.124675324675
0.111688311688
0.103896103896
0.0831168831169
0.0831168831169
0.038961038961
0.231168507816
0.0337662337662
0.0363636363636
0.0363636363636
0.038961038961
0.0467532467532
0.0571428571429
0.0571428571429
0.0467532467532
0.0363636363636
0.0337662337662
0.0337662337662
0.0311688311688
0.0181818181818
0.0155844155844
0.0155844155844
0.0181818181818
0.0181818181818
0.0233766233766
0.025974025974
0.025974025974
0.025974025974
0.0181818181818
0.0181818181818
0.0155844155844
0.0155844155844
6
rectangle
153
257
85
179
70.1783442381
0.0
0.0
0.0
0.0
0.0
0.0
0.0
0.0
0.0
0.0
0.0
0.0
0.0
0.0
0.0
0.0
0.146596858639
0.178010471204
0.162303664921
0.128272251309
0.109947643979
0.102094240838
0.0837696335079
0.0732984293194
0.0130890052356
0.22960777695
0.0340314136126
0.0340314136126
0.0392670157068
0.0366492146597
0.0471204188482
0.065445026178
0.0523560209424
0.0471204188482
0.0392670157068
0.0366492146597
0.0314136125654
0.0314136125654
0.0183246073298
0.0157068062827
0.0157068062827
0.0183246073298
0.0183246073298
0.0235602094241
0.0287958115183
0.0261780104712
0.0235602094241
0.0183246073298
0.0183246073298
0.0157068062827
0.0157068062827
3
rectangle
7
50
64
177
61.6846820532
0.0
0.0
0.0
0.0
0.0
0.0
0.0
0.0398550724638
0.0978260869565
0.0652173913043
0.0652173913043
0.0434782608696
0.054347826087
0.0398550724638
0.0434782608696
0.0434782608696
0.0398550724638
0.0507246376812
0.0434782608696
0.0507246376812
0.0507246376812
0.13768115942
0.0797101449275
0.0289855072464
0.0217391304348
0.144404211622
0.018115942029
0.0217391304348
0.0217391304348
0.0217391304348
0.0289855072464
0.0289855072464
0.0398550724638
0.0615942028986
0.0688405797101
0.0507246376812
0.0398550724638
0.0471014492754
0.036231884058
0.0253623188406
0.0289855072464
0.0615942028986
0.0398550724638
0.0289855072464
0.018115942029
0.0144927536232
0.0108695652174
0.0108695652174
0.0108695652174
0.00724637681159
0.00724637681159
4
rectangle
256
297
66
179
61.0327780787
0.0
0.0
0.0
0.0
0.0
0.0
0.0
0.0108303249097
0.137184115523
0.0649819494585
0.043321299639
0.0613718411552
0.043321299639
0.043321299639
0.043321299639
0.0397111913357
0.0397111913357
0.043321299639
0.0469314079422
0.043321299639
0.057761732852
0.0902527075812
0.126353790614
0.0361010830325
0.0252707581227
0.141912978998
0.0180505415162
0.0216606498195
0.014440433213
0.0216606498195
0.028880866426
0.028880866426
0.0397111913357
0.0469314079422
0.0794223826715
0.101083032491
0.0541516245487
0.0505415162455
0.0361010830325
0.0216606498195
0.0180505415162
0.014440433213
0.0361010830325
0.0252707581227
0.0252707581227
0.014440433213
0.0108303249097
0.0108303249097
0.0108303249097
0.0072202166065
0.0072202166065
7
2
5
1
1
0.577266962587
floor
2
6
1
1
0.573367152822
floor
2
3
1
1
0.26410906785
floor
2
4
1
1
0.261160431198
floor
5
6
1
1
0.993244356566
touch
3
5
1
1
0.457516339869
touch
4
6
1
1
0.455485512055
touch
