contour_details : [900 965],[900 1879],[1389 1879],[1389 965] : kitchen : [1312,1527]
contour_details : [250 645],[250 724],[249 725],[205 725],[205 1374],[864 1374],[864 1349],[865 1348],[865 1267],[866 1266],[866 1185],[867 1184],[867 1103],[868 1102],[868 1021],[869 1020],[869 965],[770 965],[769 964],[769 645] : dining : [572,1084]
contour_details : [110 105],[110 584],[244 584],[245 585],[245 619],[769 619],[769 105] : living : [532,292]
