contour_details : [1304 657],[1303 658],[1293 658],[1292 659],[1282 659],[1281 660],[1271 660],[1270 661],[1261 661],[1260 662],[1250 662],[1249 663],[1239 663],[1238 664],[1228 664],[1227 665],[1218 665],[1217 666],[1207 666],[1206 667],[1196 667],[1195 668],[1186 668],[1185 669],[1175 669],[1174 670],[1164 670],[1163 671],[1153 671],[1152 672],[1150 672],[1150 940],[1149 941],[936 941],[682 687],[682 688],[681 689],[681 693],[680 694],[680 698],[679 699],[679 703],[678 704],[678 709],[677 710],[677 714],[676 715],[676 719],[675 720],[675 724],[674 725],[674 729],[673 730],[673 735],[672 736],[672 740],[671 741],[671 745],[670 746],[670 750],[669 751],[669 756],[668 757],[668 761],[667 762],[667 766],[666 767],[666 771],[665 772],[665 777],[664 778],[664 782],[663 783],[663 787],[662 788],[662 792],[661 793],[661 798],[660 799],[660 803],[659 804],[659 808],[658 809],[658 813],[657 814],[657 819],[656 820],[656 824],[655 825],[655 829],[654 830],[654 834],[653 835],[653 839],[652 840],[652 845],[651 846],[651 850],[650 851],[650 855],[649 856],[649 860],[648 861],[648 866],[647 867],[647 871],[646 872],[646 876],[645 877],[645 881],[644 882],[644 886],[722 964],[722 965],[823 1066],[823 1067],[844 1088],[1310 1088],[1310 657] : corr : [1001,1024]
contour_details : [199 305],[199 880],[236 880],[237 879],[290 879],[291 878],[344 878],[345 877],[398 877],[399 876],[452 876],[453 875],[507 875],[508 874],[561 874],[562 873],[615 873],[616 872],[631 872],[632 871],[632 867],[633 866],[633 862],[634 861],[634 857],[635 856],[635 853],[636 852],[636 848],[637 847],[637 843],[638 842],[638 838],[639 837],[639 834],[640 833],[640 829],[641 828],[641 824],[642 823],[642 820],[643 819],[643 815],[644 814],[644 810],[645 809],[645 805],[646 804],[646 801],[647 800],[647 796],[648 795],[648 791],[649 790],[649 786],[650 785],[650 782],[651 781],[651 777],[652 776],[652 772],[653 771],[653 767],[654 766],[654 763],[655 762],[655 758],[656 757],[656 753],[657 752],[657 749],[658 748],[658 744],[659 743],[659 739],[660 738],[660 734],[661 733],[661 730],[662 729],[662 725],[663 724],[663 720],[664 719],[664 715],[665 714],[665 711],[666 710],[666 706],[667 705],[667 701],[668 700],[668 696],[669 695],[669 692],[670 691],[670 687],[671 686],[671 682],[672 681],[672 305] : kitchen : [369,685]
contour_details : [1065 128],[1065 647],[1162 647],[1163 646],[1178 646],[1179 645],[1194 645],[1195 644],[1210 644],[1211 643],[1226 643],[1227 642],[1242 642],[1243 641],[1258 641],[1259 640],[1274 640],[1275 639],[1290 639],[1291 638],[1306 638],[1307 637],[1468 637],[1468 626],[1467 625],[1467 610],[1466 609],[1466 593],[1465 592],[1465 588],[1466 587],[1624 587],[1624 497],[1625 496],[1811 496],[1811 128] : dining : [1290,524]
