25
2
1.27343509673
2
rectangle
32
62
12
53
21.9317121995
0.0
0.0
0.0
0.0
0.0
0.0
0.0
0.0
0.0
0.0
0.0
0.0
0.0
0.0
0.0
0.0275229357798
0.0917431192661
0.119266055046
0.128440366972
0.0550458715596
0.0917431192661
0.0917431192661
0.211009174312
0.128440366972
0.045871559633
0.235983482482
0.0275229357798
0.0366972477064
0.0366972477064
0.045871559633
0.045871559633
0.0366972477064
0.0366972477064
0.045871559633
0.0366972477064
0.045871559633
0.0550458715596
0.0366972477064
0.0366972477064
0.0183486238532
0.0275229357798
0.00917431192661
0.0183486238532
0.0183486238532
0.0183486238532
0.0183486238532
0.0183486238532
0.0183486238532
0.0183486238532
0.0183486238532
0.00917431192661
3
rectangle
20
78
62
87
31.384709653
0.0
0.0
0.0
0.0
0.0
0.0
0.0
0.0
0.0
0.0864197530864
0.0740740740741
0.0740740740741
0.0493827160494
0.0246913580247
0.0493827160494
0.0493827160494
0.0246913580247
0.0493827160494
0.0246913580247
0.0493827160494
0.0246913580247
0.0246913580247
0.141975308642
0.179012345679
0.0617283950617
0.186824996653
0.0432098765432
0.0493827160494
0.0493827160494
0.0987654320988
0.0617283950617
0.0493827160494
0.037037037037
0.0246913580247
0.0246913580247
0.0246913580247
0.0123456790123
0.0246913580247
0.00617283950617
0.0123456790123
0.00617283950617
0.0123456790123
0.0123456790123
0.0123456790123
0.0185185185185
0.0246913580247
0.0308641975309
0.0432098765432
0.0246913580247
0.0246913580247
0.0185185185185
0
