<?xml version="1.0" encoding="UTF-8" standalone="no"?>
<!-- Created with Inkscape (http://www.inkscape.org/) -->

<svg
   xmlns:dc="http://purl.org/dc/elements/1.1/"
   xmlns:cc="http://creativecommons.org/ns#"
   xmlns:rdf="http://www.w3.org/1999/02/22-rdf-syntax-ns#"
   xmlns:svg="http://www.w3.org/2000/svg"
   xmlns="http://www.w3.org/2000/svg"
   xmlns:xlink="http://www.w3.org/1999/xlink"
   xmlns:sodipodi="http://sodipodi.sourceforge.net/DTD/sodipodi-0.dtd"
   xmlns:inkscape="http://www.inkscape.org/namespaces/inkscape"
   id="svg13308"
   version="1.1"
   inkscape:version="0.91 r13725"
   width="972"
   height="1111"
   viewBox="0 0 972 1111"
   sodipodi:docname="file_231_210.svg">
  <metadata
     id="metadata13314">
    <rdf:RDF>
      <cc:Work
         rdf:about="">
        <dc:format>image/svg+xml</dc:format>
        <dc:type
           rdf:resource="http://purl.org/dc/dcmitype/StillImage" />
        <dc:title />
      </cc:Work>
    </rdf:RDF>
  </metadata>
  <defs
     id="defs13312" />
  <sodipodi:namedview
     pagecolor="#ffffff"
     bordercolor="#666666"
     borderopacity="1"
     objecttolerance="10"
     gridtolerance="10"
     guidetolerance="10"
     inkscape:pageopacity="0"
     inkscape:pageshadow="2"
     inkscape:window-width="1920"
     inkscape:window-height="997"
     id="namedview13310"
     showgrid="false"
     inkscape:zoom="1.201636"
     inkscape:cx="412.80302"
     inkscape:cy="821.80361"
     inkscape:window-x="-9"
     inkscape:window-y="-9"
     inkscape:window-maximized="1"
     inkscape:current-layer="svg13308" />
  <image
     sodipodi:absref="C:\Users\pierpaolo\Dropbox\Romani-15\GT_Files\..\Object Recognition New\file_231_210_bath.png"
     xlink:href="..\Object Recognition New\file_231_210_bath.png"
     width="972"
     height="1111"
     preserveAspectRatio="none"
     id="image13316"
     x="0"
     y="0" />
  <rect
     style="fill:none;fill-opacity:1;stroke:#800000;stroke-width:2;stroke-linecap:round;stroke-linejoin:round;stroke-miterlimit:4;stroke-dasharray:none;stroke-opacity:1"
     id="rect13318"
     width="49.931927"
     height="44.106533"
     x="426.08575"
     y="307.92819" />
  <rect
     style="fill:none;fill-opacity:1;stroke:#400000;stroke-width:2;stroke-linecap:round;stroke-linejoin:round;stroke-miterlimit:4;stroke-dasharray:none;stroke-opacity:1"
     id="rect13860"
     width="36.616745"
     height="74.897888"
     x="172.26515"
     y="689.0752" />
  <rect
     style="fill:none;fill-opacity:1;stroke:#ff0000;stroke-width:2;stroke-linecap:round;stroke-linejoin:round;stroke-miterlimit:4;stroke-dasharray:none;stroke-opacity:1"
     id="rect13862"
     width="19.140572"
     height="18.308372"
     x="438.56876"
     y="199.74236" />
  <rect
     style="fill:none;fill-opacity:1;stroke:#ff0000;stroke-width:2;stroke-linecap:round;stroke-linejoin:round;stroke-miterlimit:4;stroke-dasharray:none;stroke-opacity:1"
     id="rect13864"
     width="23.301565"
     height="14.979578"
     x="483.50748"
     y="200.57455" />
  <rect
     style="fill:none;fill-opacity:1;stroke:#ff0000;stroke-width:2;stroke-linecap:round;stroke-linejoin:round;stroke-miterlimit:4;stroke-dasharray:none;stroke-opacity:1"
     id="rect13866"
     width="21.637167"
     height="38.281143"
     x="745.65009"
     y="542.60822" />
  <rect
     style="fill:none;fill-opacity:1;stroke:#ff0000;stroke-width:2;stroke-linecap:round;stroke-linejoin:round;stroke-miterlimit:4;stroke-dasharray:none;stroke-opacity:1"
     id="rect13868"
     width="38.281143"
     height="24.965963"
     x="234.68005"
     y="773.12732" />
  <rect
     style="fill:none;fill-opacity:1;stroke:#00b000;stroke-width:2;stroke-linecap:round;stroke-linejoin:round;stroke-miterlimit:4;stroke-dasharray:none;stroke-opacity:1"
     id="rect13872"
     width="91.541862"
     height="37.448944"
     x="235.51225"
     y="512.64911" />
  <rect
     style="fill:none;fill-opacity:1;stroke:#00b000;stroke-width:2;stroke-linecap:round;stroke-linejoin:round;stroke-miterlimit:4;stroke-dasharray:none;stroke-opacity:1"
     id="rect13874"
     width="93.206261"
     height="38.281143"
     x="236.34445"
     y="901.28589" />
  <rect
     style="fill:none;fill-opacity:1;stroke:#00ff00;stroke-width:2.04394531;stroke-linecap:round;stroke-linejoin:round;stroke-miterlimit:4;stroke-dasharray:none;stroke-opacity:1"
     id="rect13876"
     width="95.658913"
     height="84.008133"
     x="258.83578"
     y="273.83002" />
  <rect
     style="fill:none;fill-opacity:1;stroke:#00ff00;stroke-width:2;stroke-linecap:round;stroke-linejoin:round;stroke-miterlimit:4;stroke-dasharray:none;stroke-opacity:1"
     id="rect13878"
     width="47.435329"
     height="68.240295"
     x="357.84546"
     y="533.45404" />
  <rect
     style="fill:none;fill-opacity:1;stroke:#00ff00;stroke-width:2;stroke-linecap:round;stroke-linejoin:round;stroke-miterlimit:4;stroke-dasharray:none;stroke-opacity:1"
     id="rect13880"
     width="92.374062"
     height="43.274334"
     x="406.94519"
     y="609.18414" />
  <rect
     style="fill:none;fill-opacity:1;stroke:#000080;stroke-width:2;stroke-linecap:round;stroke-linejoin:round;stroke-miterlimit:4;stroke-dasharray:none;stroke-opacity:1"
     id="rect13882"
     width="134.81619"
     height="51.596325"
     x="591.6933"
     y="411.95303" />
  <rect
     style="fill:none;fill-opacity:1;stroke:#000080;stroke-width:2;stroke-linecap:round;stroke-linejoin:round;stroke-miterlimit:4;stroke-dasharray:none;stroke-opacity:1"
     id="rect13884"
     width="84.052078"
     height="29.959156"
     x="614.99487"
     y="510.98468" />
  <rect
     style="fill:none;fill-opacity:1;stroke:#000080;stroke-width:2;stroke-linecap:round;stroke-linejoin:round;stroke-miterlimit:4;stroke-dasharray:none;stroke-opacity:1"
     id="rect13886"
     width="34.120148"
     height="59.918312"
     x="164.77536"
     y="515.97791" />
  <rect
     style="fill:none;fill-opacity:1;stroke:#000080;stroke-width:2;stroke-linecap:round;stroke-linejoin:round;stroke-miterlimit:4;stroke-dasharray:none;stroke-opacity:1"
     id="rect13888"
     width="33.287952"
     height="66.575905"
     x="167.27196"
     y="875.48773" />
  <rect
     style="fill:none;fill-opacity:1;stroke:#000080;stroke-width:2;stroke-linecap:round;stroke-linejoin:round;stroke-miterlimit:4;stroke-dasharray:none;stroke-opacity:1"
     id="rect13890"
     width="28.294758"
     height="24.965963"
     x="373.65726"
     y="607.51978" />
  <rect
     style="fill:none;fill-opacity:1;stroke:#0000b0;stroke-width:2;stroke-linecap:round;stroke-linejoin:round;stroke-miterlimit:4;stroke-dasharray:none;stroke-opacity:1"
     id="rect13892"
     width="85.716476"
     height="60.750511"
     x="270.4646"
     y="425.26822" />
  <rect
     style="fill:none;fill-opacity:1;stroke:#0000b0;stroke-width:2;stroke-linecap:round;stroke-linejoin:round;stroke-miterlimit:4;stroke-dasharray:none;stroke-opacity:1"
     id="rect13894"
     width="105.68924"
     height="57.421715"
     x="383.64365"
     y="426.1004" />
  <rect
     style="fill:none;fill-opacity:1;stroke:#000080;stroke-width:2;stroke-linecap:round;stroke-linejoin:round;stroke-miterlimit:4;stroke-dasharray:none;stroke-opacity:1"
     id="rect4151"
     width="16.643976"
     height="23.301565"
     x="258.81381"
     y="357.02792" />
  <rect
     style="fill:none;fill-opacity:1;stroke:#000080;stroke-width:2;stroke-linecap:round;stroke-linejoin:round;stroke-miterlimit:4;stroke-dasharray:none;stroke-opacity:1"
     id="rect4153"
     width="19.140572"
     height="23.301565"
     x="257.14941"
     y="249.67427" />
  <rect
     style="fill:none;fill-opacity:1;stroke:#000080;stroke-width:2;stroke-linecap:round;stroke-linejoin:round;stroke-miterlimit:4;stroke-dasharray:none;stroke-opacity:1"
     id="rect4155"
     width="15.811776"
     height="21.637169"
     x="312.07452"
     y="877.15216" />
</svg>
