<?xml version="1.0" encoding="UTF-8" standalone="no"?>
<!-- Created with Inkscape (http://www.inkscape.org/) -->

<svg
   xmlns:dc="http://purl.org/dc/elements/1.1/"
   xmlns:cc="http://creativecommons.org/ns#"
   xmlns:rdf="http://www.w3.org/1999/02/22-rdf-syntax-ns#"
   xmlns:svg="http://www.w3.org/2000/svg"
   xmlns="http://www.w3.org/2000/svg"
   xmlns:xlink="http://www.w3.org/1999/xlink"
   xmlns:sodipodi="http://sodipodi.sourceforge.net/DTD/sodipodi-0.dtd"
   xmlns:inkscape="http://www.inkscape.org/namespaces/inkscape"
   id="svg11901"
   version="1.1"
   inkscape:version="0.91 r13725"
   width="3704"
   height="2096"
   viewBox="0 0 3704 2096"
   sodipodi:docname="file_342_240.svg">
  <metadata
     id="metadata11907">
    <rdf:RDF>
      <cc:Work
         rdf:about="">
        <dc:format>image/svg+xml</dc:format>
        <dc:type
           rdf:resource="http://purl.org/dc/dcmitype/StillImage" />
        <dc:title></dc:title>
      </cc:Work>
    </rdf:RDF>
  </metadata>
  <defs
     id="defs11905" />
  <sodipodi:namedview
     pagecolor="#ffffff"
     bordercolor="#666666"
     borderopacity="1"
     objecttolerance="10"
     gridtolerance="10"
     guidetolerance="10"
     inkscape:pageopacity="0"
     inkscape:pageshadow="2"
     inkscape:window-width="1920"
     inkscape:window-height="997"
     id="namedview11903"
     showgrid="false"
     inkscape:zoom="0.31846794"
     inkscape:cx="2126.4979"
     inkscape:cy="1048"
     inkscape:window-x="-9"
     inkscape:window-y="-9"
     inkscape:window-maximized="1"
     inkscape:current-layer="svg11901" />
  <image
     sodipodi:absref="C:\Users\pierpaolo\Dropbox\Romani-15\Object Recognition New\file_342_240_bath.png"
     xlink:href="file_342_240_bath.png"
     y="0"
     x="0"
     id="image11909"
     preserveAspectRatio="none"
     height="2096"
     width="3704" />
  <rect
     style="fill:none;fill-opacity:1;stroke:#00ff00;stroke-width:2;stroke-linecap:round;stroke-linejoin:round;stroke-miterlimit:4;stroke-dasharray:none;stroke-opacity:1"
     id="rect11911"
     width="262"
     height="244.23729"
     x="1714.1017"
     y="226.47458"
     ry="3.2483399" />
  <rect
     style="fill:none;fill-opacity:1;stroke:#00ff00;stroke-width:2;stroke-linecap:round;stroke-linejoin:round;stroke-miterlimit:4;stroke-dasharray:none;stroke-opacity:1"
     id="rect12453"
     width="248.67796"
     height="268.66101"
     x="1980.5424"
     y="481.81357"
     ry="3.2483399" />
  <rect
     style="fill:none;fill-opacity:1;stroke:#00ff00;stroke-width:2;stroke-linecap:round;stroke-linejoin:round;stroke-miterlimit:4;stroke-dasharray:none;stroke-opacity:1"
     id="rect12457"
     width="184.28799"
     height="293.08484"
     x="1634.1694"
     y="1116.8306"
     ry="3.2483399" />
  <rect
     style="fill:none;fill-opacity:1;stroke:#00ff00;stroke-width:2;stroke-linecap:round;stroke-linejoin:round;stroke-miterlimit:4;stroke-dasharray:none;stroke-opacity:1"
     id="rect12459"
     width="179.84746"
     height="48.847458"
     x="2611.1187"
     y="1478.7457"
     ry="3.2483399" />
  <rect
     style="fill:none;fill-opacity:1;stroke:#00ff00;stroke-width:2;stroke-linecap:round;stroke-linejoin:round;stroke-miterlimit:4;stroke-dasharray:none;stroke-opacity:1"
     id="rect12461"
     width="182.06779"
     height="44.40678"
     x="2615.5593"
     y="1387.7119"
     ry="3.2483399" />
  <rect
     style="fill:none;fill-opacity:1;stroke:#00ff00;stroke-width:2;stroke-linecap:round;stroke-linejoin:round;stroke-miterlimit:4;stroke-dasharray:none;stroke-opacity:1"
     id="rect12463"
     width="308.62714"
     height="157.64403"
     x="570.62714"
     y="1367.7288"
     ry="3.2483399" />
  <rect
     style="fill:none;fill-opacity:1;stroke:#00b00f;stroke-width:2;stroke-linecap:round;stroke-linejoin:round;stroke-miterlimit:4;stroke-dasharray:none;stroke-opacity:0.94117647"
     id="rect12467"
     width="204.27116"
     height="557.30511"
     x="339.71188"
     y="570.62714"
     ry="3.2483399" />
  <rect
     style="fill:none;fill-opacity:1;stroke:#00b00f;stroke-width:2;stroke-linecap:round;stroke-linejoin:round;stroke-miterlimit:4;stroke-dasharray:none;stroke-opacity:0.94117647"
     id="rect12469"
     width="210.93221"
     height="550.64404"
     x="2948.6101"
     y="588.38983"
     ry="3.2483399" />
  <rect
     style="fill:none;fill-opacity:1;stroke:#00800f;stroke-width:2;stroke-linecap:round;stroke-linejoin:round;stroke-miterlimit:4;stroke-dasharray:none;stroke-opacity:0.94117647"
     id="rect12471"
     width="163.28174"
     height="602.88641"
     x="976.55042"
     y="1172.8302"
     ry="3.2483399" />
  <rect
     style="fill:none;fill-opacity:1;stroke:#00400f;stroke-width:2;stroke-linecap:round;stroke-linejoin:round;stroke-miterlimit:4;stroke-dasharray:none;stroke-opacity:0.94117647"
     id="rect12473"
     width="131.88141"
     height="138.16147"
     x="989.11053"
     y="1348.672"
     ry="3.2483399" />
  <rect
     style="fill:none;fill-opacity:1;stroke:#ff0000;stroke-width:2;stroke-linecap:round;stroke-linejoin:round;stroke-miterlimit:4;stroke-dasharray:none;stroke-opacity:1"
     id="rect12475"
     width="100.48107"
     height="78.500839"
     x="1007.9507"
     y="1524.5139"
     ry="3.2483399" />
  <rect
     style="fill:none;fill-opacity:1;stroke:#ff0000;stroke-width:2;stroke-linecap:round;stroke-linejoin:round;stroke-miterlimit:4;stroke-dasharray:none;stroke-opacity:1"
     id="rect12477"
     width="150.7216"
     height="119.32127"
     x="734.76782"
     y="1621.855"
     ry="3.2483399" />
  <rect
     style="fill:none;fill-opacity:1;stroke:#ff0000;stroke-width:2;stroke-linecap:round;stroke-linejoin:round;stroke-miterlimit:4;stroke-dasharray:none;stroke-opacity:1"
     id="rect12479"
     width="178.9819"
     height="116.18124"
     x="2609.3679"
     y="1628.135"
     ry="3.2483399" />
  <rect
     style="fill:none;fill-opacity:1;stroke:#b00000;stroke-width:2;stroke-linecap:round;stroke-linejoin:round;stroke-miterlimit:4;stroke-dasharray:none;stroke-opacity:1"
     id="rect12481"
     width="204.10217"
     height="109.90118"
     x="379.94406"
     y="1204.2305"
     ry="3.2483399" />
  <rect
     style="fill:none;fill-opacity:1;stroke:#b00000;stroke-width:2;stroke-linecap:round;stroke-linejoin:round;stroke-miterlimit:4;stroke-dasharray:none;stroke-opacity:1"
     id="rect12483"
     width="213.52228"
     height="119.32127"
     x="2913.9512"
     y="1194.8104"
     ry="3.2483399" />
  <rect
     style="fill:none;fill-opacity:1;stroke:#ff0000;stroke-width:2;stroke-linecap:round;stroke-linejoin:round;stroke-miterlimit:4;stroke-dasharray:none;stroke-opacity:1"
     id="rect12485"
     width="119.32127"
     height="87.920937"
     x="3008.1521"
     y="1634.415"
     ry="3.2483399" />
  <rect
     style="fill:none;fill-opacity:1;stroke:#ff0000;stroke-width:2;stroke-linecap:round;stroke-linejoin:round;stroke-miterlimit:4;stroke-dasharray:none;stroke-opacity:1"
     id="rect12487"
     width="116.18124"
     height="81.640869"
     x="383.08408"
     y="1634.415"
     ry="3.2483399" />
  <rect
     style="fill:none;fill-opacity:1;stroke:#000080;stroke-width:2;stroke-linecap:round;stroke-linejoin:round;stroke-miterlimit:4;stroke-dasharray:none;stroke-opacity:1"
     id="rect12489"
     width="370.52396"
     height="254.34271"
     x="1538.6165"
     y="1508.8137"
     ry="3.2483399" />
  <rect
     style="fill:none;fill-opacity:1;stroke:#000080;stroke-width:2;stroke-linecap:round;stroke-linejoin:round;stroke-miterlimit:4;stroke-dasharray:none;stroke-opacity:1"
     id="rect12491"
     width="251.20268"
     height="226.08241"
     x="1981.3611"
     y="233.96013"
     ry="3.2483399" />
</svg>
