<?xml version="1.0" encoding="UTF-8" standalone="no"?>
<!-- Created with Inkscape (http://www.inkscape.org/) -->

<svg
   xmlns:dc="http://purl.org/dc/elements/1.1/"
   xmlns:cc="http://creativecommons.org/ns#"
   xmlns:rdf="http://www.w3.org/1999/02/22-rdf-syntax-ns#"
   xmlns:svg="http://www.w3.org/2000/svg"
   xmlns="http://www.w3.org/2000/svg"
   xmlns:xlink="http://www.w3.org/1999/xlink"
   xmlns:sodipodi="http://sodipodi.sourceforge.net/DTD/sodipodi-0.dtd"
   xmlns:inkscape="http://www.inkscape.org/namespaces/inkscape"
   id="svg16128"
   version="1.1"
   inkscape:version="0.91 r13725"
   width="1400"
   height="1757"
   viewBox="0 0 1400 1757"
   sodipodi:docname="file_257_230.svg">
  <metadata
     id="metadata16134">
    <rdf:RDF>
      <cc:Work
         rdf:about="">
        <dc:format>image/svg+xml</dc:format>
        <dc:type
           rdf:resource="http://purl.org/dc/dcmitype/StillImage" />
        <dc:title></dc:title>
      </cc:Work>
    </rdf:RDF>
  </metadata>
  <defs
     id="defs16132" />
  <sodipodi:namedview
     pagecolor="#ffffff"
     bordercolor="#666666"
     borderopacity="1"
     objecttolerance="10"
     gridtolerance="10"
     guidetolerance="10"
     inkscape:pageopacity="0"
     inkscape:pageshadow="2"
     inkscape:window-width="1920"
     inkscape:window-height="997"
     id="namedview16130"
     showgrid="false"
     inkscape:zoom="0.37991394"
     inkscape:cx="177.51326"
     inkscape:cy="878.5"
     inkscape:window-x="-9"
     inkscape:window-y="-9"
     inkscape:window-maximized="1"
     inkscape:current-layer="svg16128" />
  <image
     sodipodi:absref="C:\Users\pierpaolo\Dropbox\Romani-15\Object Recognition New\file_257_230_bath.png"
     xlink:href="file_257_230_bath.png"
     y="0"
     x="0"
     id="image16136"
     preserveAspectRatio="none"
     height="1757"
     width="1400" />
  <rect
     style="fill:none;fill-opacity:1;stroke:#ff0000;stroke-width:2;stroke-linecap:round;stroke-linejoin:round;stroke-miterlimit:4;stroke-dasharray:none;stroke-opacity:1"
     id="rect16138"
     width="78.965248"
     height="107.91917"
     x="518.53845"
     y="175.06281" />
  <rect
     style="fill:none;fill-opacity:1;stroke:#ff0000;stroke-width:2;stroke-linecap:round;stroke-linejoin:round;stroke-miterlimit:4;stroke-dasharray:none;stroke-opacity:1"
     id="rect16680"
     width="105.287"
     height="115.8157"
     x="336.9184"
     y="251.39587" />
  <rect
     style="fill:none;fill-opacity:1;stroke:#b00000;stroke-width:2;stroke-linecap:round;stroke-linejoin:round;stroke-miterlimit:4;stroke-dasharray:none;stroke-opacity:1"
     id="rect16682"
     width="113.18353"
     height="78.965248"
     x="489.58456"
     y="80.304504" />
  <rect
     style="fill:none;fill-opacity:1;stroke:#008000;stroke-width:2;stroke-linecap:round;stroke-linejoin:round;stroke-miterlimit:4;stroke-dasharray:none;stroke-opacity:1"
     id="rect16684"
     width="131.60875"
     height="584.34283"
     x="329.02188"
     y="90.833206" />
  <rect
     style="fill:none;fill-opacity:1;stroke:#0000b0;stroke-width:2;stroke-linecap:round;stroke-linejoin:round;stroke-miterlimit:4;stroke-dasharray:none;stroke-opacity:1"
     id="rect16686"
     width="471.15933"
     height="78.965248"
     x="489.58456"
     y="554.09601" />
  <rect
     style="fill:none;fill-opacity:1;stroke:#0000b0;stroke-width:2;stroke-linecap:round;stroke-linejoin:round;stroke-miterlimit:4;stroke-dasharray:none;stroke-opacity:1"
     id="rect16688"
     width="123.71223"
     height="131.60875"
     x="1158.157"
     y="690.96912" />
  <rect
     style="fill:none;fill-opacity:1;stroke:#0000b0;stroke-width:2;stroke-linecap:round;stroke-linejoin:round;stroke-miterlimit:4;stroke-dasharray:none;stroke-opacity:1"
     id="rect16690"
     width="226.36705"
     height="184.25226"
     x="1116.0422"
     y="1483.2538" />
</svg>
