<?xml version="1.0" encoding="UTF-8" standalone="no"?>
<!-- Created with Inkscape (http://www.inkscape.org/) -->

<svg
   xmlns:dc="http://purl.org/dc/elements/1.1/"
   xmlns:cc="http://creativecommons.org/ns#"
   xmlns:rdf="http://www.w3.org/1999/02/22-rdf-syntax-ns#"
   xmlns:svg="http://www.w3.org/2000/svg"
   xmlns="http://www.w3.org/2000/svg"
   xmlns:xlink="http://www.w3.org/1999/xlink"
   xmlns:sodipodi="http://sodipodi.sourceforge.net/DTD/sodipodi-0.dtd"
   xmlns:inkscape="http://www.inkscape.org/namespaces/inkscape"
   id="svg13896"
   version="1.1"
   inkscape:version="0.91 r13725"
   width="1948"
   height="1824"
   viewBox="0 0 1948 1824"
   sodipodi:docname="file_249_210.svg">
  <metadata
     id="metadata13902">
    <rdf:RDF>
      <cc:Work
         rdf:about="">
        <dc:format>image/svg+xml</dc:format>
        <dc:type
           rdf:resource="http://purl.org/dc/dcmitype/StillImage" />
        <dc:title></dc:title>
      </cc:Work>
    </rdf:RDF>
  </metadata>
  <defs
     id="defs13900" />
  <sodipodi:namedview
     pagecolor="#ffffff"
     bordercolor="#666666"
     borderopacity="1"
     objecttolerance="10"
     gridtolerance="10"
     guidetolerance="10"
     inkscape:pageopacity="0"
     inkscape:pageshadow="2"
     inkscape:window-width="1920"
     inkscape:window-height="997"
     id="namedview13898"
     showgrid="false"
     inkscape:zoom="0.51754386"
     inkscape:cx="590.45763"
     inkscape:cy="912"
     inkscape:window-x="-9"
     inkscape:window-y="-9"
     inkscape:window-maximized="1"
     inkscape:current-layer="svg13896" />
  <image
     sodipodi:absref="C:\Users\pierpaolo\Dropbox\Romani-15\Object Recognition New\file_249_210_bath.png"
     xlink:href="file_249_210_bath.png"
     y="0"
     x="0"
     id="image13904"
     preserveAspectRatio="none"
     height="1824"
     width="1948" />
  <rect
     style="fill:none;fill-opacity:1;stroke:#400000;stroke-width:2;stroke-linecap:round;stroke-linejoin:round;stroke-miterlimit:4;stroke-dasharray:none;stroke-opacity:1"
     id="rect13906"
     width="256.98306"
     height="135.25424"
     x="79.220337"
     y="272.44067" />
  <rect
     style="fill:none;fill-opacity:1;stroke:#ff0000;stroke-width:2;stroke-linecap:round;stroke-linejoin:round;stroke-miterlimit:4;stroke-dasharray:none;stroke-opacity:1"
     id="rect14448"
     width="65.694916"
     height="67.627121"
     x="1659.7627"
     y="469.52542" />
  <rect
     style="fill:none;fill-opacity:1;stroke:#ff0000;stroke-width:2;stroke-linecap:round;stroke-linejoin:round;stroke-miterlimit:4;stroke-dasharray:none;stroke-opacity:1"
     id="rect14450"
     width="61.830509"
     height="54.101696"
     x="1663.6271"
     y="542.94916" />
  <rect
     style="fill:none;fill-opacity:1;stroke:#004000;stroke-width:2;stroke-linecap:round;stroke-linejoin:round;stroke-miterlimit:4;stroke-dasharray:none;stroke-opacity:1"
     id="rect14452"
     width="127.52542"
     height="110.13559"
     x="1441.4237"
     y="757.42371" />
</svg>
