<?xml version="1.0" encoding="UTF-8" standalone="no"?>
<!-- Created with Inkscape (http://www.inkscape.org/) -->

<svg
   xmlns:dc="http://purl.org/dc/elements/1.1/"
   xmlns:cc="http://creativecommons.org/ns#"
   xmlns:rdf="http://www.w3.org/1999/02/22-rdf-syntax-ns#"
   xmlns:svg="http://www.w3.org/2000/svg"
   xmlns="http://www.w3.org/2000/svg"
   xmlns:xlink="http://www.w3.org/1999/xlink"
   xmlns:sodipodi="http://sodipodi.sourceforge.net/DTD/sodipodi-0.dtd"
   xmlns:inkscape="http://www.inkscape.org/namespaces/inkscape"
   id="svg14797"
   version="1.1"
   inkscape:version="0.91 r13725"
   width="1653"
   height="2339"
   viewBox="0 0 1653 2339"
   sodipodi:docname="italy_027_250.svg">
  <metadata
     id="metadata14803">
    <rdf:RDF>
      <cc:Work
         rdf:about="">
        <dc:format>image/svg+xml</dc:format>
        <dc:type
           rdf:resource="http://purl.org/dc/dcmitype/StillImage" />
        <dc:title />
      </cc:Work>
    </rdf:RDF>
  </metadata>
  <defs
     id="defs14801" />
  <sodipodi:namedview
     pagecolor="#ffffff"
     bordercolor="#666666"
     borderopacity="1"
     objecttolerance="10"
     gridtolerance="10"
     guidetolerance="10"
     inkscape:pageopacity="0"
     inkscape:pageshadow="2"
     inkscape:window-width="1920"
     inkscape:window-height="997"
     id="namedview14799"
     showgrid="false"
     inkscape:zoom="0.57076426"
     inkscape:cx="829.93045"
     inkscape:cy="666.90557"
     inkscape:window-x="-9"
     inkscape:window-y="-9"
     inkscape:window-maximized="1"
     inkscape:current-layer="svg14797" />
  <image
     sodipodi:absref="C:\Users\pierpaolo\Dropbox\Romani-15\GT_Files\italy_027_250.png"
     xlink:href="italy_027_250.png"
     y="0"
     x="0"
     id="image14805"
     preserveAspectRatio="none"
     height="2339"
     width="1653" />
  <rect
     style="fill:none;fill-opacity:1;stroke:#ff0000;stroke-width:2.16112494;stroke-linecap:round;stroke-linejoin:round;stroke-miterlimit:4;stroke-dasharray:none;stroke-opacity:1"
     id="rect14807"
     width="56.827225"
     height="74.171501"
     x="1177.0138"
     y="1595.7543"
     ry="2.3354623" />
  <rect
     style="fill:none;fill-opacity:1;stroke:#ff0000;stroke-width:2;stroke-linecap:round;stroke-linejoin:round;stroke-miterlimit:4;stroke-dasharray:none;stroke-opacity:1"
     id="rect15349"
     width="47.077324"
     height="71.854866"
     x="1179.411"
     y="810.22565"
     ry="4.6622634" />
  <rect
     style="fill:none;fill-opacity:1;stroke:#400000;stroke-width:2;stroke-linecap:round;stroke-linejoin:round;stroke-miterlimit:4;stroke-dasharray:none;stroke-opacity:1"
     id="rect15351"
     width="148.66525"
     height="173.44279"
     x="1085.2563"
     y="998.53497"
     ry="4.6622601" />
  <rect
     style="fill:none;fill-opacity:1;stroke:#400000;stroke-width:2;stroke-linecap:round;stroke-linejoin:round;stroke-miterlimit:4;stroke-dasharray:none;stroke-opacity:1"
     id="rect15353"
     width="148.66525"
     height="143.70975"
     x="1085.2563"
     y="1318.1653"
     ry="4.6622601" />
  <rect
     style="fill:none;fill-opacity:1;stroke:#00b000;stroke-width:2;stroke-linecap:round;stroke-linejoin:round;stroke-miterlimit:4;stroke-dasharray:none;stroke-opacity:1"
     id="rect15355"
     width="294.85275"
     height="265.11969"
     x="317.15256"
     y="436.08475"
     ry="4.6622601" />
  <rect
     style="fill:none;fill-opacity:1;stroke:#00b000;stroke-width:2;stroke-linecap:round;stroke-linejoin:round;stroke-miterlimit:4;stroke-dasharray:none;stroke-opacity:1"
     id="rect15357"
     width="284.94174"
     height="260.16418"
     x="322.10806"
     y="1781.5052"
     ry="4.6622601" />
  <rect
     style="fill:none;fill-opacity:1;stroke:#00ff00;stroke-width:2;stroke-linecap:round;stroke-linejoin:round;stroke-miterlimit:4;stroke-dasharray:none;stroke-opacity:1"
     id="rect15359"
     width="99.110168"
     height="81.765892"
     x="1020.8347"
     y="2081.3135"
     ry="4.6622601" />
  <rect
     style="fill:none;fill-opacity:1;stroke:#00ff00;stroke-width:2;stroke-linecap:round;stroke-linejoin:round;stroke-miterlimit:4;stroke-dasharray:none;stroke-opacity:1"
     id="rect15361"
     width="99.110168"
     height="76.810379"
     x="1023.3125"
     y="1783.983"
     ry="4.6622601" />
  <rect
     style="fill:none;fill-opacity:1;stroke:#00ff00;stroke-width:2;stroke-linecap:round;stroke-linejoin:round;stroke-miterlimit:4;stroke-dasharray:none;stroke-opacity:1"
     id="rect15363"
     width="86.721397"
     height="200.69809"
     x="1154.6334"
     y="1873.1823"
     ry="4.6622601" />
  <rect
     style="fill:none;fill-opacity:1;stroke:#00ff00;stroke-width:2;stroke-linecap:round;stroke-linejoin:round;stroke-miterlimit:4;stroke-dasharray:none;stroke-opacity:1"
     id="rect15365"
     width="106.54343"
     height="84.243645"
     x="1020.8347"
     y="609.52753"
     ry="4.6622601" />
  <rect
     style="fill:none;fill-opacity:1;stroke:#00ff00;stroke-width:2;stroke-linecap:round;stroke-linejoin:round;stroke-miterlimit:4;stroke-dasharray:none;stroke-opacity:1"
     id="rect15367"
     width="79.288139"
     height="213.08687"
     x="1157.1112"
     y="389.00742"
     ry="4.6622601" />
  <rect
     style="fill:none;fill-opacity:1;stroke:#00ff00;stroke-width:2;stroke-linecap:round;stroke-linejoin:round;stroke-miterlimit:4;stroke-dasharray:none;stroke-opacity:1"
     id="rect15369"
     width="96.632416"
     height="81.765892"
     x="1023.3125"
     y="314.67477"
     ry="4.6622601" />
  <rect
     style="fill:none;fill-opacity:1;stroke:#000080;stroke-width:2;stroke-linecap:round;stroke-linejoin:round;stroke-miterlimit:4;stroke-dasharray:none;stroke-opacity:1"
     id="rect15371"
     width="225.47563"
     height="235.38666"
     x="681.38245"
     y="304.76376"
     ry="4.6622601" />
  <rect
     style="fill:none;fill-opacity:1;stroke:#000080;stroke-width:2;stroke-linecap:round;stroke-linejoin:round;stroke-miterlimit:4;stroke-dasharray:none;stroke-opacity:1"
     id="rect15373"
     width="213.08687"
     height="230.43114"
     x="691.29346"
     y="1952.4703"
     ry="4.6622601" />
  <rect
     style="fill:none;fill-opacity:1;stroke:#000080;stroke-width:2;stroke-linecap:round;stroke-linejoin:round;stroke-miterlimit:4;stroke-dasharray:none;stroke-opacity:1"
     id="rect17422"
     width="73.585548"
     height="70.081474"
     x="324.1268"
     y="720.11798"
     ry="2.30129" />
  <rect
     style="fill:none;fill-opacity:1;stroke:#000080;stroke-width:2;stroke-linecap:round;stroke-linejoin:round;stroke-miterlimit:4;stroke-dasharray:none;stroke-opacity:1"
     id="rect17424"
     width="70.081474"
     height="70.081474"
     x="324.1268"
     y="348.68619"
     ry="2.30129" />
  <rect
     style="fill:none;fill-opacity:1;stroke:#000080;stroke-width:2;stroke-linecap:round;stroke-linejoin:round;stroke-miterlimit:4;stroke-dasharray:none;stroke-opacity:1"
     id="rect17426"
     width="70.081474"
     height="75.337585"
     x="325.87885"
     y="1683.7383"
     ry="2.30129" />
  <rect
     style="fill:none;fill-opacity:1;stroke:#000080;stroke-width:2;stroke-linecap:round;stroke-linejoin:round;stroke-miterlimit:4;stroke-dasharray:none;stroke-opacity:1"
     id="rect17428"
     width="71.833511"
     height="70.081474"
     x="322.37479"
     y="2058.6741"
     ry="2.30129" />
</svg>
