contour_details : [1226 470],[1225 471],[1148 471],[1147 472],[1071 472],[1070 473],[993 473],[992 474],[916 474],[915 475],[838 475],[837 476],[761 476],[760 477],[683 477],[682 478],[606 478],[605 479],[528 479],[527 480],[505 480],[505 624],[1279 624],[1279 470] : corridor : [801,557]
contour_details : [200 290],[200 1044],[240 1044],[241 1043],[298 1043],[299 1042],[356 1042],[357 1041],[414 1041],[415 1040],[472 1040],[473 1039],[489 1039],[489 985],[488 984],[488 910],[487 909],[487 835],[486 834],[486 760],[485 759],[485 685],[484 684],[484 610],[483 609],[483 535],[482 534],[482 460],[481 459],[481 385],[480 384],[480 310],[479 309],[479 290] : bedroom : [348,778]
contour_details : [795 250],[795 454],[904 454],[904 425],[905 424],[979 424],[979 250] : wc : [882,335]
