contour_details : [301 899],[301 1384],[995 1384],[995 899] : living : [566,1060]
contour_details : [304 303],[304 877],[428 877],[428 439],[429 438],[525 438],[526 437],[662 437],[663 436],[800 436],[801 435],[841 435],[841 303] : corridor : [657,371]
contour_details : [897 99],[897 301],[896 302],[868 302],[868 490],[989 490],[990 491],[990 672],[1411 672],[1446 637],[1447 637],[1493 591],[1494 591],[1540 545],[1541 545],[1587 499],[1588 499],[1597 490],[1597 357],[1596 356],[1596 162],[1595 161],[1595 99] : dining : [1126,345]
