contour_details : [1075 935],[1075 1319],[1794 1319],[1794 935] : KitChen : [1516,1069]
contour_details : [200 930],[200 981],[201 982],[201 1057],[202 1058],[202 1133],[203 1134],[203 1209],[204 1210],[204 1285],[205 1286],[205 1309],[1029 1309],[1029 930] : Dining : [563,1101]
contour_details : [200 605],[200 914],[1789 914],[1789 605] : Living : [987,738]
contour_details : [1305 110],[1305 139],[1304 140],[1304 234],[1303 235],[1303 329],[1302 330],[1302 424],[1301 425],[1301 519],[1300 520],[1300 584],[1794 584],[1794 552],[1793 551],[1793 505],[1792 504],[1792 457],[1791 456],[1791 410],[1790 409],[1790 362],[1789 361],[1789 315],[1788 314],[1788 267],[1787 266],[1787 220],[1786 219],[1786 172],[1785 171],[1785 125],[1784 124],[1784 110] : Entry : [1569,394]
