contour_details : [269 593],[269 827],[316 827],[317 828],[430 828],[430 593] : wc : [331,690]
contour_details : [1110 484],[1103 491],[1103 492],[1067 528],[1067 529],[1030 566],[1030 567],[1002 595],[1002 643],[1003 644],[1003 714],[1004 715],[1004 785],[1005 786],[1005 855],[1006 856],[1006 878],[1059 878],[1060 877],[1136 877],[1137 876],[1212 876],[1213 875],[1289 875],[1290 874],[1366 874],[1367 873],[1442 873],[1443 872],[1519 872],[1520 871],[1542 871],[1542 484] : bedroom : [1190,626]
contour_details : [457 119],[398 178],[397 178],[323 252],[322 252],[247 327],[246 327],[171 402],[170 402],[155 417],[155 433],[154 434],[154 485],[153 486],[153 537],[152 538],[152 572],[274 572],[275 573],[308 573],[309 574],[341 574],[342 575],[375 575],[376 576],[408 576],[409 577],[997 577],[1001 573],[1001 572],[1020 553],[1020 552],[1040 532],[1040 531],[1059 512],[1059 511],[1079 491],[1079 490],[1094 475],[1094 119] : living : [749,512]
