contour_details : [297 904],[297 1225],[298 1226],[298 1380],[1027 1380],[1027 904] : bedroom : [684,1003]
contour_details : [1133 799],[1133 1376],[1892 1376],[1892 1321],[1891 1320],[1891 1238],[1890 1237],[1890 1156],[1889 1155],[1889 1073],[1888 1072],[1888 990],[1887 989],[1887 908],[1886 907],[1886 825],[1885 824],[1885 799] : bedroom : [1372,1076]
contour_details : [1133 514],[1133 598],[1132 599],[1132 777],[1290 777],[1290 514] : cor : [1217,652]
contour_details : [232 118],[232 427],[739 427],[740 428],[740 581],[741 582],[741 808],[742 809],[742 881],[1023 881],[1023 494],[1024 493],[1290 493],[1290 118] : living : [603,231]
