25
4
1.73205080757
7
unknown
152
178
194
221
20.5182845287
0.0
0.0754716981132
0.0754716981132
0.0
0.0754716981132
0.0
0.0754716981132
0.0754716981132
0.0377358490566
0.0377358490566
0.0377358490566
0.0377358490566
0.0754716981132
0.0377358490566
0.0377358490566
0.0377358490566
0.0377358490566
0.0377358490566
0.0754716981132
0.0188679245283
0.0188679245283
0.0188679245283
0.0188679245283
0.0188679245283
0.0188679245283
0.0487370178829
0.0188679245283
0.0
0.0
0.0188679245283
0.0188679245283
0.150943396226
0.0188679245283
0.169811320755
0.0188679245283
0.0
0.0
0.0
0.0188679245283
0.0
0.0
0.0
0.0188679245283
0.0566037735849
0.377358490566
0.0377358490566
0.0188679245283
0.0188679245283
0.0
0.0
0.0
4
rectangle
151
210
161
219
30.0665927567
0.0
0.0
0.0
0.0
0.0
0.0
0.0
0.0
0.0
0.0
0.0
0.0
0.0
0.0
0.0
0.0
0.0
0.0522388059701
0.119402985075
0.126865671642
0.15671641791
0.238805970149
0.119402985075
0.126865671642
0.0522388059701
0.203948262095
0.0522388059701
0.044776119403
0.0373134328358
0.0373134328358
0.044776119403
0.0298507462687
0.0298507462687
0.0373134328358
0.0373134328358
0.0373134328358
0.0522388059701
0.0597014925373
0.0298507462687
0.0223880597015
0.0223880597015
0.0223880597015
0.0149253731343
0.0223880597015
0.0223880597015
0.0149253731343
0.0149253731343
0.0149253731343
0.0223880597015
0.0223880597015
0.0223880597015
3
rectangle
63
191
67
195
64.0702739186
0.0
0.0
0.0
0.0
0.0
0.0
0.0
0.0
0.0
0.0
0.0
0.0
0.0
0.0
0.0
0.0
0.0
0.230188679245
0.181132075472
0.143396226415
0.105660377358
0.0981132075472
0.0867924528302
0.0943396226415
0.0528301886792
0.174611648812
0.0566037735849
0.0452830188679
0.0415094339623
0.0377358490566
0.0301886792453
0.0301886792453
0.0377358490566
0.0301886792453
0.0339622641509
0.0377358490566
0.0415094339623
0.0528301886792
0.0377358490566
0.022641509434
0.0188679245283
0.0188679245283
0.0188679245283
0.0150943396226
0.0150943396226
0.0150943396226
0.0150943396226
0.0188679245283
0.0188679245283
0.022641509434
0.0301886792453
2
rectangle
44
102
42
101
29.2745623366
0.0
0.0
0.0
0.0
0.0
0.0
0.0
0.0
0.0
0.0
0.0
0.0
0.0
0.0
0.0
0.0
0.0
0.0
0.118518518519
0.0888888888889
0.140740740741
0.162962962963
0.237037037037
0.192592592593
0.0518518518519
0.210225534993
0.0518518518519
0.0444444444444
0.037037037037
0.037037037037
0.037037037037
0.0296296296296
0.037037037037
0.037037037037
0.0444444444444
0.0296296296296
0.0518518518519
0.0444444444444
0.0296296296296
0.0222222222222
0.0222222222222
0.0222222222222
0.0148148148148
0.0222222222222
0.0148148148148
0.0222222222222
0.0148148148148
0.0148148148148
0.0222222222222
0.0222222222222
0.0222222222222
1
4
7
1
1
0.0230146686899
touch
