contour_details : [255 1415],[255 1889],[1029 1889],[1029 1415] : kitchen : [773,1697]
contour_details : [1045 750],[1045 1084],[1409 1084],[1409 750] : entry : [1332,943]
contour_details : [105 700],[105 1389],[1024 1389],[1024 745],[965 745],[964 744],[964 700] : dining : [427,1091]
contour_details : [300 110],[300 669],[339 669],[340 670],[473 670],[474 671],[607 671],[608 672],[741 672],[742 673],[875 673],[876 674],[969 674],[969 110] : living : [786,416]
