contour_details : [105 710],[105 1189],[151 1189],[152 1190],[308 1190],[309 1191],[465 1191],[466 1192],[622 1192],[623 1193],[779 1193],[780 1194],[889 1194],[889 710] : kitchen : [522,943]
contour_details : [105 200],[105 694],[889 694],[889 679],[890 678],[890 630],[891 629],[891 580],[892 579],[892 531],[893 530],[893 481],[894 480],[894 432],[895 431],[895 383],[896 382],[896 333],[897 332],[897 284],[898 283],[898 234],[899 233],[899 200] : dining : [521,488]
contour_details : [920 195],[920 210],[919 211],[919 260],[918 261],[918 310],[917 311],[917 360],[916 361],[916 410],[915 411],[915 460],[914 461],[914 510],[913 511],[913 560],[912 561],[912 610],[911 611],[911 660],[910 661],[910 694],[1789 694],[1789 195] : living : [1378,489]
