25
3
2.48049329515
3
rectangle
46
155
39
157
80.6597793203
0.0
0.0
0.0
0.0
0.0
0.0
0.0
0.0
0.0
0.0
0.0
0.0
0.000617059891107
0.00065335753176
0.00021778584392
0.00021778584392
0.00134301270417
0.0010889292196
0.00359346642468
0.00261343012704
0.00214156079855
0.00196007259528
0.0016333938294
0.00203266787659
0.00112522686025
0.0
0.0
0.0
0.0
0.0
0.0
0.0
0.0
0.0
0.0
0.0
0.0
0.000617059891107
0.00065335753176
0.00021778584392
0.00021778584392
0.00134301270417
0.0010889292196
0.00359346642468
0.00261343012704
0.00214156079855
0.00196007259528
0.0016333938294
0.00203266787659
0.00112522686025
0.1997429419
0.000580762250454
0.000580762250454
0.000617059891107
0.000725952813067
0.000725952813067
0.000871143375681
0.0010889292196
0.000871143375681
0.000798548094374
0.000725952813067
0.000617059891107
0.000689655172414
0.000399274047187
0.00032667876588
0.000290381125227
0.000362976406534
0.000399274047187
0.000399274047187
0.0005444646098
0.000471869328494
0.000362976406534
0.000362976406534
0.000871143375681
0.00021778584392
0.00021778584392
0.000580762250454
0.000580762250454
0.000617059891107
0.000725952813067
0.000725952813067
0.000871143375681
0.0010889292196
0.000871143375681
0.000798548094374
0.000725952813067
0.000617059891107
0.000689655172414
0.000399274047187
0.00032667876588
0.000290381125227
0.000362976406534
0.000399274047187
0.000399274047187
0.0005444646098
0.000471869328494
0.000362976406534
0.000362976406534
0.000871143375681
0.00021778584392
0.00021778584392
4
rectangle
46
155
289
407
80.6597793203
0.0
0.0
0.0
0.0
0.0
0.0
0.0
0.0
0.0
0.0
0.0
0.0
0.00062098188194
0.000547925189947
0.000255698421975
0.000219170075979
0.00135154880187
0.00109585037989
0.00357977790766
0.00263004091175
0.00215517241379
0.00197253068381
0.00164377556984
0.0020455873758
0.00113237872589
0.0
0.0
0.0
0.0
0.0
0.0
0.0
0.0
0.0
0.0
0.0
0.0
0.00062098188194
0.000547925189947
0.000255698421975
0.000219170075979
0.00135154880187
0.00109585037989
0.00357977790766
0.00263004091175
0.00215517241379
0.00197253068381
0.00164377556984
0.0020455873758
0.00113237872589
0.18431812409
0.000584453535944
0.000584453535944
0.00062098188194
0.00073056691993
0.00073056691993
0.000876680303916
0.00109585037989
0.000876680303916
0.000803623611923
0.00073056691993
0.00062098188194
0.000694038573933
0.000401811805961
0.000328755113968
0.000292226767972
0.000365283459965
0.000401811805961
0.000401811805961
0.000547925189947
0.000474868497954
0.000365283459965
0.000365283459965
0.000840151957919
0.000219170075979
0.000219170075979
0.000584453535944
0.000584453535944
0.00062098188194
0.00073056691993
0.00073056691993
0.000876680303916
0.00109585037989
0.000876680303916
0.000803623611923
0.00073056691993
0.00062098188194
0.000694038573933
0.000401811805961
0.000328755113968
0.000292226767972
0.000365283459965
0.000401811805961
0.000401811805961
0.000547925189947
0.000474868497954
0.000365283459965
0.000365283459965
0.000840151957919
0.000219170075979
0.000219170075979
2
rectangle
35
166
29
419
205.548047911
0.0
1.45533048624e-14
1.57175692514e-14
1.51354370569e-14
1.39711726679e-14
1.39711726679e-14
1.39711726679e-14
3.84207248368e-14
7.21843921177e-14
4.77348399488e-14
4.19135180038e-14
4.07492536148e-14
3.72564604478e-14
3.72564604478e-14
3.72564604478e-14
3.25994028919e-14
5.93774838387e-14
1.03619530621e-13
1.56011428125e-13
1.19919232066e-13
1.00126737454e-13
9.31411511196e-14
8.84840935636e-14
1.65325543237e-13
1.44368784235e-13
0.0
1.45533048624e-14
1.57175692514e-14
1.51354370569e-14
1.39711726679e-14
1.39711726679e-14
1.39711726679e-14
3.84207248368e-14
7.21843921177e-14
4.77348399488e-14
4.19135180038e-14
4.07492536148e-14
3.72564604478e-14
3.72564604478e-14
3.72564604478e-14
3.25994028919e-14
5.93774838387e-14
1.03619530621e-13
1.56011428125e-13
1.19919232066e-13
1.00126737454e-13
9.31411511196e-14
8.84840935636e-14
1.65325543237e-13
1.44368784235e-13
0.0
1.45533048624e-14
1.57175692514e-14
1.51354370569e-14
1.39711726679e-14
1.39711726679e-14
1.39711726679e-14
3.84207248368e-14
7.21843921177e-14
4.77348399488e-14
4.19135180038e-14
4.07492536148e-14
3.72564604478e-14
3.72564604478e-14
3.72564604478e-14
3.25994028919e-14
5.93774838387e-14
1.03619530621e-13
1.56011428125e-13
1.19919232066e-13
1.00126737454e-13
9.31411511196e-14
8.84840935636e-14
1.65325543237e-13
1.44368784235e-13
0.0
1.45533048624e-14
1.57175692514e-14
1.51354370569e-14
1.39711726679e-14
1.39711726679e-14
1.39711726679e-14
3.84207248368e-14
7.21843921177e-14
4.77348399488e-14
4.19135180038e-14
4.07492536148e-14
3.72564604478e-14
3.72564604478e-14
3.72564604478e-14
3.25994028919e-14
5.93774838387e-14
1.03619530621e-13
1.56011428125e-13
1.19919232066e-13
1.00126737454e-13
9.31411511196e-14
8.84840935636e-14
1.65325543237e-13
1.44368784235e-13
0.0
1.45533048624e-14
1.57175692514e-14
1.51354370569e-14
1.39711726679e-14
1.39711726679e-14
1.39711726679e-14
3.84207248368e-14
7.21843921177e-14
4.77348399488e-14
4.19135180038e-14
4.07492536148e-14
3.72564604478e-14
3.72564604478e-14
3.72564604478e-14
3.25994028919e-14
5.93774838387e-14
1.03619530621e-13
1.56011428125e-13
1.19919232066e-13
1.00126737454e-13
9.31411511196e-14
8.84840935636e-14
1.65325543237e-13
1.44368784235e-13
0.0
1.45533048624e-14
1.57175692514e-14
1.51354370569e-14
1.39711726679e-14
1.39711726679e-14
1.39711726679e-14
3.84207248368e-14
7.21843921177e-14
4.77348399488e-14
4.19135180038e-14
4.07492536148e-14
3.72564604478e-14
3.72564604478e-14
3.72564604478e-14
3.25994028919e-14
5.93774838387e-14
1.03619530621e-13
1.56011428125e-13
1.19919232066e-13
1.00126737454e-13
9.31411511196e-14
8.84840935636e-14
1.65325543237e-13
1.44368784235e-13
0.0309858282863
2.91066097249e-14
2.91066097249e-14
3.37636672809e-14
3.37636672809e-14
4.19135180038e-14
4.77348399488e-14
5.29740296993e-14
6.11238804222e-14
7.33486565067e-14
1.00708869648e-13
7.39307887012e-14
1.45533048624e-13
4.88991043378e-14
7.39307887012e-14
3.55100638644e-14
4.94812365323e-14
3.66743282533e-14
2.96887419194e-14
2.73602131414e-14
2.32852877799e-14
2.03746268074e-14
1.62997014459e-14
1.62997014459e-14
1.39711726679e-14
1.28069082789e-14
2.91066097249e-14
2.91066097249e-14
3.37636672809e-14
3.37636672809e-14
4.19135180038e-14
4.77348399488e-14
5.29740296993e-14
6.11238804222e-14
7.33486565067e-14
1.00708869648e-13
7.39307887012e-14
1.45533048624e-13
4.88991043378e-14
7.39307887012e-14
3.55100638644e-14
4.94812365323e-14
3.66743282533e-14
2.96887419194e-14
2.73602131414e-14
2.32852877799e-14
2.03746268074e-14
1.62997014459e-14
1.62997014459e-14
1.39711726679e-14
1.28069082789e-14
2.91066097249e-14
2.91066097249e-14
3.37636672809e-14
3.37636672809e-14
4.19135180038e-14
4.77348399488e-14
5.29740296993e-14
6.11238804222e-14
7.33486565067e-14
1.00708869648e-13
7.39307887012e-14
1.45533048624e-13
4.88991043378e-14
7.39307887012e-14
3.55100638644e-14
4.94812365323e-14
3.66743282533e-14
2.96887419194e-14
2.73602131414e-14
2.32852877799e-14
2.03746268074e-14
1.62997014459e-14
1.62997014459e-14
1.39711726679e-14
1.28069082789e-14
2.91066097249e-14
2.91066097249e-14
3.37636672809e-14
3.37636672809e-14
4.19135180038e-14
4.77348399488e-14
5.29740296993e-14
6.11238804222e-14
7.33486565067e-14
1.00708869648e-13
7.39307887012e-14
1.45533048624e-13
4.88991043378e-14
7.39307887012e-14
3.55100638644e-14
4.94812365323e-14
3.66743282533e-14
2.96887419194e-14
2.73602131414e-14
2.32852877799e-14
2.03746268074e-14
1.62997014459e-14
1.62997014459e-14
1.39711726679e-14
1.28069082789e-14
2.91066097249e-14
2.91066097249e-14
3.37636672809e-14
3.37636672809e-14
4.19135180038e-14
4.77348399488e-14
5.29740296993e-14
6.11238804222e-14
7.33486565067e-14
1.00708869648e-13
7.39307887012e-14
1.45533048624e-13
4.88991043378e-14
7.39307887012e-14
3.55100638644e-14
4.94812365323e-14
3.66743282533e-14
2.96887419194e-14
2.73602131414e-14
2.32852877799e-14
2.03746268074e-14
1.62997014459e-14
1.62997014459e-14
1.39711726679e-14
1.28069082789e-14
2.91066097249e-14
2.91066097249e-14
3.37636672809e-14
3.37636672809e-14
4.19135180038e-14
4.77348399488e-14
5.29740296993e-14
6.11238804222e-14
7.33486565067e-14
1.00708869648e-13
7.39307887012e-14
1.45533048624e-13
4.88991043378e-14
7.39307887012e-14
3.55100638644e-14
4.94812365323e-14
3.66743282533e-14
2.96887419194e-14
2.73602131414e-14
2.32852877799e-14
2.03746268074e-14
1.62997014459e-14
1.62997014459e-14
1.39711726679e-14
1.28069082789e-14
2
2
3
1
1
0.239954518489
floor
2
4
1
1
0.239825983785
floor
