25
2
1.41421356237
3
unknown
75
221
125
259
91.0494371207
0.0
0.0
0.0
0.0
0.0
0.0
0.0
0.0
0.0
0.0
0.0
0.0
0.0
0.0
0.0
0.0554323725055
0.0532150776053
0.0354767184035
0.243902439024
0.177383592018
0.20177383592
0.0776053215078
0.0554323725055
0.0576496674058
0.039911308204
0.20657984971
0.039911308204
0.0376940133038
0.039911308204
0.0443458980044
0.0421286031042
0.0509977827051
0.0443458980044
0.0376940133038
0.0376940133038
0.0354767184035
0.0376940133038
0.0376940133038
0.0243902439024
0.0155210643016
0.0177383592018
0.0177383592018
0.0221729490022
0.0243902439024
0.0288248337029
0.0332594235033
0.0243902439024
0.0243902439024
0.0221729490022
0.0221729490022
0.0177383592018
2
rectangle
31
254
35
122
112.614386292
0.0
0.0
0.0
0.0
0.0
0.0
0.0
0.0
0.0
0.0970149253731
0.0858208955224
0.0634328358209
0.0485074626866
0.0522388059701
0.0410447761194
0.044776119403
0.0410447761194
0.0410447761194
0.0373134328358
0.0391791044776
0.0429104477612
0.044776119403
0.0466417910448
0.0541044776119
0.21828358209
0.163735354867
0.0541044776119
0.0485074626866
0.0466417910448
0.0634328358209
0.0708955223881
0.0503731343284
0.0373134328358
0.0317164179104
0.0261194029851
0.0223880597015
0.0205223880597
0.0223880597015
0.0130597014925
0.0111940298507
0.00932835820896
0.0111940298507
0.0130597014925
0.0149253731343
0.0186567164179
0.0242537313433
0.035447761194
0.0317164179104
0.0223880597015
0.0242537313433
0.0242537313433
1
2
3
1
1
0.883156087294
floor
